bin	mg_rast_top_annotation	num_contigs	total_Mb	bin_N50_kb	num_sp	mean_coverage_adj	genes	KEGG_annotated	pct_KEGG	by_hit_filtering
1	Clostridium	365	9.39	61.3	2	541.0689	8776	4894	55.7657247037	n
2	Bacteroides or Parabacteroides	67	4.17	97.9	1	125.6138	3396	1618	47.6442873969	n
3	Desulfovibrio	145	3.1	63.2	1	11.47156	2917	1565	53.651011313	n
4	Clostridium	30	2.66	278.9	1	92.88796	2584	1411	54.6052631579	n
5	Clostridium	603	10.97	43.5	2	115.6814	10600	5020	47.358490566	n
6	Clostridium	105	2.96	62	1	45.78777	2909	1492	51.2891027845	n
7	Clostridium	265	3.9	58	1	11.55116	3915	1771	45.2362707535	n
8	Methanosaeta	115	2.26	32.9	1	4.871729	2328	1155	49.6134020619	y
9	Methanothermobacter	40	1.35	63.9	1	5.899643	1364	658	48.2404692082	y
10	Clostridium	460	5.12	60.5	1	5.844339	5197	2381	45.8148932076	n
