OTU_10	NODE_2775_length_4939_cov_16.011466	94.539	293	16	0	1	293	4184	4476	8.43e-127	453
OTU_11	NODE_2775_length_4939_cov_16.011466	96.861	223	7	0	3	225	4054	4276	1.09e-104	379
OTU_11	NODE_19777_length_753_cov_2.244986	80.383	209	33	8	21	225	753	549	5.56e-38	158
OTU_11	NODE_870_length_15438_cov_5.142170	80.383	209	33	8	21	225	15438	15234	5.56e-38	158
OTU_12	NODE_18986_length_784_cov_4382.370370	89.384	292	30	1	1	291	779	488	1.12e-100	366
OTU_12	NODE_9269_length_1583_cov_13.554974	86.007	293	38	3	1	291	587	878	5.33e-84	311
OTU_12	NODE_11732_length_1253_cov_5189.040902	85.324	293	40	3	1	291	474	183	1.15e-80	300
OTU_12	NODE_53_length_115894_cov_11.869923	79.452	292	59	1	1	291	3040	3331	2.59e-52	206
OTU_12	NODE_13051_length_1132_cov_19.852368	82.629	213	33	4	81	291	222	432	3.37e-46	185
OTU_12	NODE_3195_length_4374_cov_6.371845	84.286	140	17	5	155	291	2	139	4.45e-30	132
OTU_14	NODE_11732_length_1253_cov_5189.040902	98.630	292	4	0	1	292	474	183	2.94e-146	518
OTU_14	NODE_18986_length_784_cov_4382.370370	87.031	293	36	2	1	292	779	488	1.48e-89	329
OTU_14	NODE_9269_length_1583_cov_13.554974	83.333	294	45	4	1	292	587	878	3.27e-71	268
OTU_14	NODE_13051_length_1132_cov_19.852368	83.099	213	33	3	81	292	222	432	7.27e-48	191
OTU_15	NODE_2775_length_4939_cov_16.011466	96.861	223	7	0	3	225	4054	4276	5.07e-103	374
OTU_15	NODE_19777_length_753_cov_2.244986	81.340	209	31	8	21	225	753	549	1.19e-39	163
OTU_15	NODE_870_length_15438_cov_5.142170	80.861	209	32	8	21	225	15438	15234	5.56e-38	158
OTU_163	NODE_18986_length_784_cov_4382.370370	90.444	293	26	2	1	292	779	488	3.11e-106	385
OTU_163	NODE_11732_length_1253_cov_5189.040902	88.435	294	30	4	1	292	474	183	3.15e-96	351
OTU_163	NODE_9269_length_1583_cov_13.554974	85.424	295	37	5	1	292	587	878	3.22e-81	302
OTU_163	NODE_13051_length_1132_cov_19.852368	83.019	212	35	1	81	292	222	432	7.27e-48	191
OTU_171	NODE_2775_length_4939_cov_16.011466	97.059	272	8	0	1	272	4184	4455	1.81e-128	459
OTU_1	NODE_2775_length_4939_cov_16.011466	98.294	293	5	0	1	293	4184	4476	3.81e-145	514
OTU_1	NODE_2775_length_4939_cov_16.011466	99.556	225	1	0	1	225	4052	4276	3.86e-114	411
OTU_1	NODE_870_length_15438_cov_5.142170	81.429	210	29	10	21	225	15438	15234	1.19e-39	163
OTU_1	NODE_19777_length_753_cov_2.244986	80.861	209	32	8	21	225	753	549	5.56e-38	158
OTU_20	NODE_2775_length_4939_cov_16.011466	92.000	225	18	0	1	225	4052	4276	8.66e-86	316
OTU_20	NODE_870_length_15438_cov_5.142170	83.575	207	30	4	21	225	15438	15234	5.48e-48	191
OTU_20	NODE_19777_length_753_cov_2.244986	83.092	207	31	4	21	225	753	549	2.55e-46	185
OTU_25	NODE_2775_length_4939_cov_16.011466	97.952	293	6	0	1	293	4184	4476	1.77e-143	508
OTU_25	NODE_2775_length_4939_cov_16.011466	98.636	220	3	0	6	225	4057	4276	5.03e-108	390
OTU_25	NODE_870_length_15438_cov_5.142170	80.952	210	30	10	21	225	15438	15234	5.56e-38	158
OTU_25	NODE_19777_length_753_cov_2.244986	80.383	209	33	8	21	225	753	549	2.58e-36	152
OTU_26	NODE_2775_length_4939_cov_16.011466	97.758	223	5	0	3	225	4054	4276	2.34e-106	385
OTU_26	NODE_19777_length_753_cov_2.244986	80.861	209	32	8	21	225	753	549	5.56e-38	158
OTU_26	NODE_870_length_15438_cov_5.142170	80.861	209	32	8	21	225	15438	15234	5.56e-38	158
OTU_30	NODE_2775_length_4939_cov_16.011466	97.309	223	6	0	3	225	4054	4276	2.34e-106	385
OTU_30	NODE_870_length_15438_cov_5.142170	80.952	210	30	10	21	225	15438	15234	1.19e-39	163
OTU_30	NODE_19777_length_753_cov_2.244986	80.383	209	33	8	21	225	753	549	5.56e-38	158
OTU_32	NODE_11732_length_1253_cov_5189.040902	88.435	294	31	3	1	293	474	183	3.16e-96	351
OTU_32	NODE_18986_length_784_cov_4382.370370	87.838	296	29	7	1	293	779	488	6.85e-93	340
OTU_32	NODE_9269_length_1583_cov_13.554974	84.459	296	39	4	1	293	587	878	3.25e-76	285
OTU_32	NODE_13051_length_1132_cov_19.852368	78.972	214	41	4	81	293	222	432	2.07e-33	143
OTU_32	NODE_2775_length_4939_cov_16.011466	95.946	222	9	0	4	225	4055	4276	3.95e-99	361
OTU_32	NODE_870_length_15438_cov_5.142170	80.000	210	32	10	21	225	15438	15234	1.20e-34	147
OTU_32	NODE_19777_length_753_cov_2.244986	79.426	209	35	8	21	225	753	549	5.60e-33	141
OTU_42	NODE_18986_length_784_cov_4382.370370	93.836	292	18	0	1	292	779	488	6.54e-123	440
OTU_42	NODE_9269_length_1583_cov_13.554974	82.770	296	43	6	1	292	587	878	7.07e-68	257
OTU_42	NODE_11732_length_1253_cov_5189.040902	82.373	295	46	5	1	292	474	183	3.29e-66	252
OTU_42	NODE_3195_length_4374_cov_6.371845	97.826	138	3	0	155	292	2	139	2.56e-62	239
OTU_42	NODE_53_length_115894_cov_11.869923	78.378	296	56	8	1	292	3040	3331	3.38e-46	185
OTU_42	NODE_13051_length_1132_cov_19.852368	77.465	213	45	3	81	292	222	432	7.48e-28	124
OTU_5	NODE_9269_length_1583_cov_13.554974	98.630	292	4	0	1	292	587	878	2.94e-146	518
OTU_5	NODE_18986_length_784_cov_4382.370370	86.149	296	33	6	1	292	779	488	1.49e-84	313
OTU_5	NODE_11732_length_1253_cov_5189.040902	83.333	294	45	4	1	292	474	183	3.27e-71	268
OTU_5	NODE_13051_length_1132_cov_19.852368	78.774	212	44	1	81	292	222	432	7.43e-33	141
OTU_5	NODE_3195_length_4374_cov_6.371845	84.444	135	13	7	162	292	9	139	2.08e-28	126
OTU_85	NODE_2775_length_4939_cov_16.011466	98.635	293	4	0	1	293	4184	4476	8.19e-147	520
