NODE_14_length_229146_cov_12.290662	14	229146	12.29	66.69	100	Desulfovibrio
NODE_37_length_137771_cov_11.694691	37	137771	11.69	66.61	100	Desulfovibrio
NODE_53_length_115894_cov_11.869923	53	115894	11.87	65.75	100	Desulfovibrio
NODE_59_length_111332_cov_11.499286	59	111332	11.50	65.26	0	Desulfovibrio
NODE_68_length_107638_cov_12.266250	68	107638	12.27	67.39	0	Desulfovibrio
NODE_71_length_106735_cov_10.594132	71	106735	10.59	63.68	100	Desulfovibrio
NODE_77_length_104190_cov_10.816344	77	104190	10.82	64.56	100	Desulfovibrio
NODE_107_length_89442_cov_9.611879	107	89442	9.61	61.97	49	Desulfovibrio
NODE_118_length_84664_cov_11.652224	118	84664	11.65	62.63	10	Unknown
NODE_123_length_80239_cov_12.011910	123	80239	12.01	66.00	0	Desulfovibrio
NODE_158_length_70934_cov_11.289917	158	70934	11.29	64.21	0	Desulfovibrio
NODE_160_length_69481_cov_10.786434	160	69481	10.79	63.43	100	Desulfovibrio
NODE_170_length_66726_cov_12.156470	170	66726	12.16	66.64	0	Desulfovibrio
NODE_175_length_65987_cov_12.092732	175	65987	12.09	65.73	0	Desulfovibrio
NODE_178_length_65691_cov_12.270431	178	65691	12.27	67.81	0	Desulfovibrio
NODE_188_length_63293_cov_12.162086	188	63293	12.16	67.37	0	Desulfovibrio
NODE_205_length_60746_cov_10.901089	205	60746	10.90	64.24	0	Desulfovibrio
NODE_209_length_60324_cov_12.530024	209	60324	12.53	66.27	100	Desulfovibrio
NODE_226_length_57638_cov_12.431377	226	57638	12.43	67.06	0	Desulfovibrio
NODE_240_length_55341_cov_10.190102	240	55341	10.19	64.31	0	Desulfovibrio
NODE_253_length_53763_cov_10.896626	253	53763	10.90	62.51	0	Desulfovibrio
NODE_276_length_49802_cov_12.101514	276	49802	12.10	65.94	0	Desulfovibrio
NODE_280_length_49420_cov_10.904041	280	49420	10.90	65.37	0	Desulfovibrio
NODE_296_length_47140_cov_12.173070	296	47140	12.17	66.34	0	Desulfovibrio
NODE_319_length_45320_cov_11.814581	319	45320	11.81	65.86	200	Desulfovibrio
NODE_327_length_44277_cov_10.937068	327	44277	10.94	64.24	0	Desulfovibrio
NODE_353_length_41052_cov_11.660463	353	41052	11.66	65.44	0	Desulfovibrio
NODE_375_length_38999_cov_11.274753	375	38999	11.27	66.59	0	Desulfovibrio
NODE_379_length_38679_cov_11.749379	379	38679	11.75	65.55	100	Desulfovibrio
NODE_389_length_37805_cov_10.654252	389	37805	10.65	64.03	0	Desulfovibrio
NODE_402_length_36707_cov_9.993343	402	36707	9.99	63.83	0	Desulfovibrio
NODE_444_length_33646_cov_10.341609	444	33646	10.34	63.60	100	Desulfovibrio
NODE_497_length_29242_cov_11.352828	497	29242	11.35	64.79	0	Desulfovibrio
NODE_512_length_28702_cov_11.278005	512	28702	11.28	65.41	100	Desulfovibrio
NODE_525_length_27829_cov_9.238784	525	27829	9.24	63.99	0	Desulfovibrio
NODE_548_length_26521_cov_10.400438	548	26521	10.40	63.46	0	Desulfovibrio
NODE_558_length_25898_cov_10.409705	558	25898	10.41	62.23	0	Desulfovibrio
NODE_566_length_25372_cov_10.936604	566	25372	10.94	65.36	0	Desulfovibrio
NODE_570_length_25268_cov_11.047039	570	25268	11.05	65.36	100	Desulfovibrio
NODE_583_length_24526_cov_10.347636	583	24526	10.35	64.23	0	Desulfovibrio
NODE_607_length_23397_cov_12.098578	607	23397	12.10	65.45	0	Desulfovibrio
NODE_620_length_22927_cov_10.426810	620	22927	10.43	60.46	0	Unknown
NODE_621_length_22925_cov_11.344206	621	22925	11.34	66.93	0	Desulfovibrio
NODE_642_length_22093_cov_11.962565	642	22093	11.96	66.22	0	Desulfovibrio
NODE_657_length_21647_cov_13.184930	657	21647	13.18	66.83	0	Unknown
NODE_665_length_21487_cov_11.979610	665	21487	11.98	66.75	0	Desulfovibrio
NODE_666_length_21478_cov_11.642627	666	21478	11.64	65.35	0	Desulfovibrio
NODE_669_length_21369_cov_12.103828	669	21369	12.10	65.36	0	Desulfovibrio
NODE_739_length_19127_cov_12.228660	739	19127	12.23	66.39	0	Desulfovibrio
NODE_767_length_17947_cov_11.865415	767	17947	11.87	65.60	0	Desulfovibrio
NODE_777_length_17701_cov_12.394424	777	17701	12.39	65.78	0	Desulfovibrio
NODE_781_length_17632_cov_11.599590	781	17632	11.60	64.20	0	Desulfovibrio
NODE_800_length_17095_cov_11.203638	800	17095	11.20	66.03	0	Desulfovibrio
NODE_856_length_15754_cov_10.445379	856	15754	10.45	64.35	0	Desulfovibrio
NODE_896_length_14897_cov_10.951489	896	14897	10.95	62.72	0	Desulfovibrio
NODE_921_length_14476_cov_11.285556	921	14476	11.29	65.72	0	Unknown
NODE_926_length_14382_cov_10.762337	926	14382	10.76	64.03	0	Desulfovibrio
NODE_972_length_13524_cov_11.226000	972	13524	11.23	66.30	0	Unknown
NODE_1049_length_12620_cov_10.765460	1049	12620	10.77	65.10	0	Desulfovibrio
NODE_1062_length_12458_cov_10.832944	1062	12458	10.83	65.92	0	Desulfovibrio
NODE_1116_length_11590_cov_11.948158	1116	11590	11.95	66.10	0	Desulfovibrio
NODE_1117_length_11589_cov_12.281516	1117	11589	12.28	63.97	0	Desulfovibrio
NODE_1173_length_11043_cov_12.046687	1173	11043	12.05	67.42	0	Desulfovibrio
NODE_1181_length_10980_cov_13.011716	1181	10980	13.01	66.81	0	Desulfovibrio
NODE_1186_length_10920_cov_11.182973	1186	10920	11.18	64.73	0	Desulfovibrio
NODE_1282_length_10070_cov_11.265602	1282	10070	11.27	66.42	0	Desulfovibrio
NODE_1312_length_9753_cov_7.944937	1312	9753	7.94	63.57	0	Janthinobacterium
NODE_1324_length_9689_cov_10.249948	1324	9689	10.25	66.26	0	Desulfovibrio
NODE_1448_length_8854_cov_11.983294	1448	8854	11.98	67.61	0	Desulfovibrio
NODE_1860_length_7154_cov_12.128187	1860	7154	12.13	64.56	0	Magnetospirillum
NODE_1962_length_6819_cov_12.192933	1962	6819	12.19	65.55	0	Desulfovibrio
NODE_2049_length_6543_cov_11.433878	2049	6543	11.43	64.89	0	Desulfovibrio
NODE_2191_length_6144_cov_13.237477	2191	6144	13.24	69.09	0	Desulfovibrio
NODE_2262_length_6000_cov_11.039697	2262	6000	11.04	60.13	0	Desulfovibrio
NODE_2331_length_5806_cov_11.533125	2331	5806	11.53	66.59	0	Desulfovibrio
NODE_2337_length_5792_cov_10.946488	2337	5792	10.95	66.13	0	Desulfovibrio
NODE_2385_length_5674_cov_10.972415	2385	5674	10.97	66.74	0	Desulfovibrio
NODE_2710_length_5057_cov_12.438625	2710	5057	12.44	62.55	0	Desulfovibrio
NODE_2928_length_4728_cov_12.738449	2928	4728	12.74	65.36	0	Desulfovibrio
NODE_3154_length_4431_cov_10.104205	3154	4431	10.10	64.41	0	Desulfovibrio
NODE_3286_length_4257_cov_11.046882	3286	4257	11.05	67.96	0	Desulfovibrio
NODE_3628_length_3883_cov_12.245298	3628	3883	12.25	64.18	0	Desulfovibrio
NODE_4293_length_3348_cov_14.895840	4293	3348	14.90	66.04	0	Unknown
NODE_4479_length_3228_cov_11.457926	4479	3228	11.46	68.99	0	Desulfovibrio
NODE_4584_length_3157_cov_7.771438	4584	3157	7.77	67.88	10	Desulfovibrio
NODE_5159_length_2811_cov_14.884253	5159	2811	14.88	70.22	0	Desulfovibrio
NODE_5660_length_2562_cov_12.809733	5660	2562	12.81	63.39	0	Desulfovibrio
NODE_5684_length_2553_cov_11.202962	5684	2553	11.20	65.26	0	Desulfovibrio
NODE_5700_length_2549_cov_13.501203	5700	2549	13.50	67.59	0	Rubrobacter
NODE_6893_length_2129_cov_13.838476	6893	2129	13.84	69.23	0	Nitrosomonas
NODE_8072_length_1815_cov_13.607386	8072	1815	13.61	65.62	0	Desulfovibrio
NODE_8091_length_1811_cov_13.581435	8091	1811	13.58	66.70	0	Streptomyces
NODE_8788_length_1665_cov_11.339130	8788	1665	11.34	65.05	0	Desulfovibrio
NODE_9010_length_1625_cov_10.448408	9010	1625	10.45	63.57	0	Desulfovibrio
NODE_9463_length_1545_cov_13.214094	9463	1545	13.21	65.89	0	Desulfovibrio
NODE_10253_length_1428_cov_14.881282	10253	1428	14.88	63.94	0	Desulfovibrio
NODE_15326_length_968_cov_10.800657	15326	968	10.80	65.50	0	Xanthomonas
NODE_18142_length_819_cov_9.181937	18142	819	9.18	63.49	0	Desulfovibrio
NODE_21059_length_707_cov_11.085890	21059	707	11.09	64.22	0	Desulfovibrio
NODE_30554_length_478_cov_9.134752	30554	478	9.13	64.85	0	Unknown
NODE_31721_length_458_cov_8.183623	31721	458	8.18	60.04	0	Unknown
NODE_34282_length_418_cov_11.267218	34282	418	11.27	70.57	0	Desulfovibrio
NODE_36964_length_382_cov_13.847095	36964	382	13.85	62.56	0	Unknown
NODE_40545_length_345_cov_6.913793	40545	345	6.91	60.00	0	Aeromonas
NODE_51744_length_274_cov_10.324201	51744	274	10.32	67.15	0	Aeromonas
NODE_82333_length_190_cov_7.392593	82333	190	7.39	68.42	0	Unknown
NODE_82479_length_171_cov_10.284483	82479	171	10.28	60.82	0	Unknown
NODE_82605_length_153_cov_8.836735	82605	153	8.84	60.13	0	Unknown
NODE_82643_length_146_cov_10.670330	82643	146	10.67	60.27	0	Unknown
NODE_82735_length_132_cov_9.493506	82735	132	9.49	67.42	0	Unknown
NODE_82794_length_124_cov_9.057971	82794	124	9.06	66.94	0	Unknown
NODE_83025_length_107_cov_7.711538	83025	107	7.71	70.09	0	Unknown
NODE_83048_length_106_cov_7.490196	83048	106	7.49	67.92	0	Unknown
NODE_83075_length_105_cov_10.500000	83075	105	10.50	66.67	0	Unknown
NODE_83101_length_104_cov_9.469388	83101	104	9.47	67.31	0	Unknown
NODE_83120_length_103_cov_9.395833	83120	103	9.40	68.93	0	Unknown
NODE_83122_length_103_cov_8.500000	83122	103	8.50	67.96	0	Unknown
NODE_83125_length_103_cov_7.687500	83125	103	7.69	66.99	0	Unknown
NODE_83204_length_100_cov_6.977778	83204	100	6.98	68.00	0	Unknown
NODE_83243_length_97_cov_15.952381	83243	97	15.95	62.89	0	Unknown
NODE_83244_length_97_cov_8.071429	83244	97	8.07	67.01	0	Unknown
NODE_83245_length_97_cov_6.976190	83245	97	6.98	64.95	0	Unknown
NODE_83262_length_96_cov_8.878049	83262	96	8.88	70.83	0	Unknown
NODE_83304_length_93_cov_17.815789	83304	93	17.82	62.37	0	Unknown
NODE_83370_length_88_cov_13.969697	83370	88	13.97	70.45	0	Unknown
NODE_83373_length_88_cov_7.393939	83373	88	7.39	61.36	0	Unknown
NODE_83401_length_86_cov_18.225806	83401	86	18.23	66.28	0	Unknown
NODE_83421_length_84_cov_10.758621	83421	84	10.76	64.29	0	Unknown
NODE_83431_length_83_cov_12.178571	83431	83	12.18	65.06	0	Unknown
NODE_83443_length_82_cov_9.851852	83443	82	9.85	70.73	0	Unknown
NODE_83444_length_82_cov_8.555556	83444	82	8.56	67.07	0	Unknown
NODE_83463_length_81_cov_8.730769	83463	81	8.73	67.90	0	Unknown
NODE_83524_length_76_cov_14.238095	83524	76	14.24	64.47	0	Unknown
NODE_83526_length_76_cov_8.238095	83526	76	8.24	64.47	0	Unknown
NODE_83569_length_73_cov_14.277778	83569	73	14.28	63.01	0	Unknown
NODE_83605_length_72_cov_12.588235	83605	72	12.59	61.11	0	Unknown
NODE_83687_length_69_cov_10.428571	83687	69	10.43	62.32	0	Unknown
NODE_83689_length_69_cov_8.785714	83689	69	8.79	60.87	0	Unknown
NODE_83692_length_69_cov_7.357143	83692	69	7.36	63.77	0	Unknown
NODE_83763_length_65_cov_11.600000	83763	65	11.60	66.15	0	Unknown
NODE_83785_length_64_cov_8.555556	83785	64	8.56	62.50	0	Unknown
NODE_83821_length_62_cov_13.142857	83821	62	13.14	70.97	0	Unknown
NODE_83939_length_59_cov_12.750000	83939	59	12.75	67.80	0	Unknown
NODE_83998_length_58_cov_16.333333	83998	58	16.33	62.07	0	Unknown
NODE_84698_length_56_cov_7.000000	84698	56	7.00	62.50	0	Unknown
