NODE_21_length_193840_cov_10.505282	21	193840	10.51	30.99	0	Clostridium
NODE_24_length_183349_cov_12.380667	24	183349	12.38	29.38	0	Clostridium
NODE_40_length_132037_cov_12.553439	40	132037	12.55	29.65	0	Clostridium
NODE_65_length_108217_cov_11.447209	65	108217	11.45	30.39	0	Clostridium
NODE_85_length_98951_cov_9.161746	85	98951	9.16	30.07	0	Clostridium
NODE_90_length_97263_cov_9.860711	90	97263	9.86	31.41	0	Clostridium
NODE_91_length_96215_cov_11.458933	91	96215	11.46	29.33	0	Clostridium
NODE_97_length_94723_cov_13.098069	97	94723	13.10	30.74	134	Clostridium
NODE_104_length_90768_cov_9.479270	104	90768	9.48	29.68	0	Clostridium
NODE_128_length_77946_cov_9.370068	128	77946	9.37	30.56	0	Clostridium
NODE_132_length_76883_cov_11.374850	132	76883	11.37	29.33	0	Unknown
NODE_137_length_76346_cov_13.702717	137	76346	13.70	29.13	0	Clostridium
NODE_146_length_73477_cov_9.883768	146	73477	9.88	30.40	0	Clostridium
NODE_180_length_65005_cov_11.018984	180	65005	11.02	30.19	0	Clostridium
NODE_182_length_64646_cov_12.805035	182	64646	12.81	30.84	200	Clostridium
NODE_186_length_64023_cov_10.544788	186	64023	10.54	28.78	100	Clostridium
NODE_196_length_61899_cov_10.436485	196	61899	10.44	28.75	0	Clostridium
NODE_203_length_60850_cov_10.839197	203	60850	10.84	28.81	100	Clostridium
NODE_204_length_60814_cov_9.184137	204	60814	9.18	28.96	0	Clostridium
NODE_213_length_59671_cov_13.916415	213	59671	13.92	30.61	0	Clostridium
NODE_216_length_59270_cov_8.724681	216	59270	8.72	29.45	0	Clostridium
NODE_223_length_58015_cov_11.233264	223	58015	11.23	30.42	0	Clostridium
NODE_235_length_56703_cov_13.041802	235	56703	13.04	28.99	0	Clostridium
NODE_246_length_54494_cov_12.292199	246	54494	12.29	29.93	0	Clostridium
NODE_254_length_53749_cov_13.625992	254	53749	13.63	29.99	0	Clostridium
NODE_258_length_53190_cov_12.897431	258	53190	12.90	30.26	0	Clostridium
NODE_270_length_50743_cov_10.352036	270	50743	10.35	28.92	500	Clostridium
NODE_282_length_49151_cov_14.208286	282	49151	14.21	28.00	0	Clostridium
NODE_284_length_49101_cov_13.089793	284	49101	13.09	31.69	100	Clostridium
NODE_298_length_47072_cov_12.071612	298	47072	12.07	30.29	100	Clostridium
NODE_310_length_46068_cov_10.590464	310	46068	10.59	31.10	0	Clostridium
NODE_337_length_43109_cov_9.698402	337	43109	9.70	28.92	100	Clostridium
NODE_343_length_42577_cov_9.019072	343	42577	9.02	30.55	100	Clostridium
NODE_350_length_41494_cov_11.258042	350	41494	11.26	29.25	0	Clostridium
NODE_358_length_40279_cov_13.952416	358	40279	13.95	28.75	0	Clostridium
NODE_367_length_39708_cov_9.645500	367	39708	9.65	30.81	10	Clostridium
NODE_381_length_38564_cov_14.612480	381	38564	14.61	28.97	53	Clostridium
NODE_384_length_38410_cov_12.608369	384	38410	12.61	35.14	100	Clostridium
NODE_416_length_35422_cov_12.585150	416	35422	12.59	28.34	100	Clostridium
NODE_431_length_34190_cov_12.271979	431	34190	12.27	29.58	0	Clostridium
NODE_477_length_30980_cov_9.032466	477	30980	9.03	28.33	100	Clostridium
NODE_481_length_30669_cov_13.566342	481	30669	13.57	29.87	0	Clostridium
NODE_483_length_30499_cov_9.499113	483	30499	9.50	29.20	0	Clostridium
NODE_498_length_29240_cov_9.494501	498	29240	9.49	29.41	0	Clostridium
NODE_509_length_28890_cov_14.027709	509	28890	14.03	33.25	0	Clostridium
NODE_515_length_28522_cov_10.068852	515	28522	10.07	32.07	0	Clostridium
NODE_516_length_28517_cov_13.041810	516	28517	13.04	31.93	0	Clostridium
NODE_522_length_27881_cov_9.838101	522	27881	9.84	30.82	0	Clostridium
NODE_553_length_26199_cov_13.804888	553	26199	13.80	29.89	0	Clostridium
NODE_554_length_26187_cov_12.060003	554	26187	12.06	30.34	0	Clostridium
NODE_586_length_24469_cov_9.485787	586	24469	9.49	30.59	0	Clostridium
NODE_596_length_23764_cov_9.138850	596	23764	9.14	28.26	0	Clostridium
NODE_603_length_23569_cov_13.175598	603	23569	13.18	29.59	0	Clostridium
NODE_625_length_22685_cov_13.397481	625	22685	13.40	33.76	0	Clostridium
NODE_634_length_22288_cov_14.595961	634	22288	14.60	29.60	0	Clostridium
NODE_637_length_22249_cov_15.028476	637	22249	15.03	30.59	0	Clostridium
NODE_639_length_22171_cov_9.301185	639	22171	9.30	30.50	10	Clostridium
NODE_694_length_20457_cov_15.340359	694	20457	15.34	30.73	0	Clostridium
NODE_696_length_20409_cov_10.928024	696	20409	10.93	29.56	0	Clostridium
NODE_697_length_20372_cov_14.648423	697	20372	14.65	27.43	0	Clostridium
NODE_705_length_20041_cov_11.553537	705	20041	11.55	29.04	0	Clostridium
NODE_756_length_18208_cov_12.470060	756	18208	12.47	30.80	0	Clostridium
NODE_774_length_17753_cov_13.404452	774	17753	13.40	28.57	0	Unknown
NODE_786_length_17494_cov_13.907564	786	17494	13.91	30.24	100	Clostridium
NODE_789_length_17381_cov_8.828235	789	17381	8.83	31.26	0	Clostridium
NODE_795_length_17217_cov_11.065901	795	17217	11.07	28.41	0	Clostridium
NODE_803_length_17004_cov_14.295711	803	17004	14.30	27.35	0	Clostridium
NODE_825_length_16352_cov_9.758790	825	16352	9.76	29.33	0	Clostridium
NODE_871_length_15398_cov_13.865346	871	15398	13.87	29.34	100	Clostridium
NODE_905_length_14772_cov_14.158388	905	14772	14.16	29.23	0	Clostridium
NODE_942_length_14073_cov_11.643102	942	14073	11.64	29.56	0	Clostridium
NODE_953_length_13851_cov_11.665628	953	13851	11.67	28.28	0	Clostridium
NODE_964_length_13708_cov_9.215850	964	13708	9.22	28.27	100	Paenibacillus
NODE_966_length_13687_cov_15.314701	966	13687	15.31	29.21	0	Clostridium
NODE_968_length_13681_cov_14.363423	968	13681	14.36	31.25	0	Clostridium
NODE_985_length_13380_cov_13.486604	985	13380	13.49	34.11	0	Clostridium
NODE_1015_length_13034_cov_13.951922	1015	13034	13.95	30.86	0	Clostridium
NODE_1045_length_12717_cov_9.814484	1045	12717	9.81	28.93	0	Clostridium
NODE_1126_length_11505_cov_11.276245	1126	11505	11.28	31.37	0	Clostridium
NODE_1180_length_10981_cov_13.982702	1180	10981	13.98	28.61	100	Clostridium
NODE_1200_length_10765_cov_9.352288	1200	10765	9.35	31.30	0	Clostridium
NODE_1256_length_10274_cov_13.004795	1256	10274	13.00	26.77	0	Clostridium
NODE_1272_length_10144_cov_16.062543	1272	10144	16.06	28.39	0	Clostridium
NODE_1315_length_9735_cov_9.940909	1315	9735	9.94	32.51	0	Clostridium
NODE_1329_length_9645_cov_11.064651	1329	9645	11.06	28.98	0	Clostridium
NODE_1332_length_9621_cov_13.688689	1332	9621	13.69	29.18	0	Bacteroides
NODE_1380_length_9275_cov_9.376790	1380	9275	9.38	28.59	0	Clostridium
NODE_1474_length_8710_cov_13.343963	1474	8710	13.34	26.38	0	Bacillus
NODE_1636_length_7960_cov_11.830614	1636	7960	11.83	31.48	0	Clostridium
NODE_1664_length_7825_cov_9.030759	1664	7825	9.03	27.60	0	Clostridium
NODE_1759_length_7493_cov_11.713767	1759	7493	11.71	26.13	0	Clostridium
NODE_1783_length_7408_cov_15.614715	1783	7408	15.61	27.77	0	Clostridium
NODE_1837_length_7225_cov_11.648396	1837	7225	11.65	27.88	0	Clostridium
NODE_1882_length_7070_cov_13.614825	1882	7070	13.61	28.71	100	Unknown
NODE_1890_length_7039_cov_12.968929	1890	7039	12.97	27.57	0	Clostridium
NODE_2114_length_6367_cov_8.394962	2114	6367	8.39	28.71	0	Clostridium
NODE_2183_length_6174_cov_10.198072	2183	6174	10.20	27.47	0	Clostridium
NODE_2243_length_6026_cov_8.575448	2243	6026	8.58	29.44	0	Clostridium
NODE_2275_length_5962_cov_8.862536	2275	5962	8.86	27.68	0	Clostridium
NODE_2751_length_4970_cov_8.818922	2751	4970	8.82	30.48	10	Clostridium
NODE_2988_length_4640_cov_12.770774	2988	4640	12.77	25.30	0	Clostridium
NODE_3049_length_4568_cov_16.293818	3049	4568	16.29	30.12	0	Clostridium
NODE_3314_length_4217_cov_10.281836	3314	4217	10.28	26.96	0	Alkaliphilus
NODE_3383_length_4139_cov_8.972331	3383	4139	8.97	29.64	0	Desulfitobacterium
NODE_3524_length_3991_cov_9.239329	3524	3991	9.24	26.91	0	Clostridium
NODE_3928_length_3619_cov_10.003367	3928	3619	10.00	29.12	0	Clostridium
NODE_3950_length_3605_cov_9.054366	3950	3605	9.05	28.16	0	Clostridium
NODE_4139_length_3462_cov_8.684473	4139	3462	8.68	31.57	10	Unknown
NODE_4279_length_3355_cov_10.389091	4279	3355	10.39	29.12	0	Clostridium
NODE_4313_length_3328_cov_10.661473	4313	3328	10.66	32.00	0	Clostridium
NODE_4814_length_2998_cov_9.775399	4814	2998	9.78	29.49	0	Pediococcus
NODE_4870_length_2967_cov_15.883242	4870	2967	15.88	30.30	0	Clostridium
NODE_4896_length_2954_cov_13.868575	4896	2954	13.87	34.56	0	Clostridium
NODE_4905_length_2951_cov_15.147099	4905	2951	15.15	26.60	0	Unknown
NODE_5086_length_2851_cov_8.650930	5086	2851	8.65	30.45	0	Thermincola
NODE_5235_length_2771_cov_13.423049	5235	2771	13.42	28.62	0	Clostridium
NODE_5474_length_2648_cov_9.068646	5474	2648	9.07	29.12	0	Clostridium
NODE_5611_length_2584_cov_14.532226	5611	2584	14.53	30.34	0	Unknown
NODE_5680_length_2555_cov_11.582400	5680	2555	11.58	30.29	0	Clostridium
NODE_5759_length_2526_cov_12.377175	5759	2526	12.38	31.47	0	Parabacteroides
NODE_5771_length_2522_cov_11.121605	5771	2522	11.12	26.76	0	Clostridium
NODE_5848_length_2496_cov_13.038918	5848	2496	13.04	35.10	0	Dorea
NODE_6086_length_2398_cov_10.952198	6086	2398	10.95	29.07	0	Clostridium
NODE_6219_length_2353_cov_11.423412	6219	2353	11.42	28.56	0	Clostridium
NODE_6345_length_2307_cov_12.543073	6345	2307	12.54	34.50	0	Unknown
NODE_6469_length_2264_cov_11.830240	6469	2264	11.83	30.83	0	Clostridium
NODE_6600_length_2218_cov_8.337032	6600	2218	8.34	24.80	0	Clostridium
NODE_7011_length_2095_cov_9.780882	7011	2095	9.78	29.26	0	Unknown
NODE_7245_length_2032_cov_13.757208	7245	2032	13.76	32.87	0	Sebaldella
NODE_8150_length_1800_cov_11.271060	8150	1800	11.27	33.44	0	Abiotrophia
NODE_8165_length_1796_cov_10.952326	8165	1796	10.95	30.23	0	Clostridium
NODE_8225_length_1779_cov_9.298724	8225	1779	9.30	30.30	0	Unknown
NODE_8339_length_1756_cov_15.722516	8339	1756	15.72	30.87	0	Clostridium
NODE_8485_length_1722_cov_10.268746	8485	1722	10.27	31.82	0	Clostridium
NODE_8964_length_1633_cov_11.839037	8964	1633	11.84	28.90	0	Clostridium
NODE_9178_length_1596_cov_15.981830	9178	1596	15.98	28.57	103	Clostridium
NODE_9395_length_1559_cov_9.439495	9395	1559	9.44	33.35	0	Clostridium
NODE_9744_length_1500_cov_14.438062	9744	1500	14.44	31.53	0	Clostridium
NODE_9794_length_1494_cov_10.717165	9794	1494	10.72	26.77	0	Unknown
NODE_10219_length_1432_cov_9.065359	10219	1432	9.07	28.21	0	Clostridium
NODE_10669_length_1373_cov_10.172989	10669	1373	10.17	29.28	0	Unknown
NODE_11342_length_1296_cov_11.966156	11342	1296	11.97	31.64	0	Clostridium
NODE_11623_length_1264_cov_11.694789	11623	1264	11.69	32.12	0	Clostridium
NODE_12670_length_1163_cov_12.947653	12670	1163	12.95	32.50	0	Unknown
NODE_12671_length_1163_cov_8.895307	12671	1163	8.90	30.01	0	Unknown
NODE_12803_length_1153_cov_9.032787	12803	1153	9.03	33.04	0	Alkaliphilus
NODE_14003_length_1053_cov_8.377756	14003	1053	8.38	27.54	0	Clostridium
NODE_14488_length_1019_cov_9.496888	14488	1019	9.50	25.42	0	Clostridium
NODE_14582_length_1013_cov_8.558455	14582	1013	8.56	34.45	0	Clostridium
NODE_14816_length_998_cov_9.678685	14816	998	9.68	33.37	0	Clostridium
NODE_15027_length_985_cov_10.183871	15027	985	10.18	33.81	0	Clostridium
NODE_15439_length_961_cov_10.540839	15439	961	10.54	29.97	0	Clostridium
NODE_15440_length_961_cov_9.658940	15440	961	9.66	30.18	0	Bacillus
NODE_15753_length_943_cov_11.876126	15753	943	11.88	33.62	0	Unknown
NODE_16118_length_921_cov_9.012702	16118	921	9.01	30.18	0	Clostridium
NODE_16431_length_904_cov_15.571260	16431	904	15.57	27.43	0	Unknown
NODE_16505_length_900_cov_10.140828	16505	900	10.14	29.11	0	Clostridium
NODE_18007_length_825_cov_11.359740	18007	825	11.36	32.36	0	Unknown
NODE_18008_length_825_cov_9.277922	18008	825	9.28	31.15	0	Unknown
NODE_18169_length_818_cov_11.876802	18169	818	11.88	32.15	0	Clostridium
NODE_19035_length_782_cov_8.925722	19035	782	8.93	29.28	0	Unknown
NODE_20672_length_720_cov_10.416541	20672	720	10.42	29.58	0	Clostridium
NODE_21781_length_683_cov_8.466561	21781	683	8.47	29.87	0	Roseiflexus
NODE_22046_length_674_cov_8.689822	22046	674	8.69	32.49	0	Clostridium
NODE_22186_length_670_cov_12.492683	22186	670	12.49	33.88	0	Alkaliphilus
NODE_22382_length_665_cov_11.309836	22382	665	11.31	26.77	0	Bacillus
NODE_22502_length_662_cov_15.481054	22502	662	15.48	29.15	0	Unknown
NODE_22690_length_656_cov_16.179700	22690	656	16.18	30.18	0	Clostridium
NODE_23175_length_642_cov_9.706985	23175	642	9.71	33.33	0	Clostridium
NODE_23597_length_630_cov_13.130435	23597	630	13.13	31.11	0	Unknown
NODE_23723_length_627_cov_15.772727	23723	627	15.77	34.13	0	Unknown
NODE_24816_length_599_cov_9.312500	24816	599	9.31	34.89	0	Unknown
NODE_24991_length_595_cov_9.416667	24991	595	9.42	34.29	0	Unknown
NODE_26336_length_564_cov_8.477407	26336	564	8.48	27.84	0	Clostridium
NODE_26337_length_564_cov_8.302554	26337	564	8.30	30.85	0	Unknown
NODE_28300_length_522_cov_11.141328	28300	522	11.14	33.14	0	Unknown
NODE_28397_length_520_cov_10.247312	28397	520	10.25	32.12	0	Anaerostipes
NODE_28398_length_520_cov_9.821505	28398	520	9.82	33.08	0	Clostridium
NODE_28498_length_518_cov_14.639309	28498	518	14.64	34.56	0	Bacteroides
NODE_28581_length_516_cov_15.288503	28581	516	15.29	31.01	0	Unknown
NODE_28617_length_515_cov_11.597826	28617	515	11.60	29.52	0	Unknown
NODE_29079_length_506_cov_9.254989	29079	506	9.25	28.46	0	Clostridium
NODE_29346_length_501_cov_13.096413	29346	501	13.10	34.73	0	Unknown
NODE_29561_length_497_cov_11.085973	29561	497	11.09	32.19	0	Unknown
NODE_30817_length_473_cov_10.770335	30817	473	10.77	32.35	0	Unknown
NODE_31371_length_464_cov_15.594132	31371	464	15.59	33.41	0	Streptococcus
NODE_31599_length_460_cov_9.928395	31599	460	9.93	33.91	0	Burkholderia
NODE_32019_length_453_cov_9.914573	32019	453	9.91	26.05	0	Unknown
NODE_32676_length_442_cov_12.640827	32676	442	12.64	35.07	0	Clostridium
NODE_33517_length_429_cov_14.165775	33517	429	14.17	30.07	0	Unknown
NODE_33798_length_425_cov_13.102703	33798	425	13.10	30.35	0	Unknown
NODE_33880_length_424_cov_8.715447	33880	424	8.72	30.66	0	Unknown
NODE_34408_length_416_cov_10.063712	34408	416	10.06	33.65	0	Clostridium
NODE_34409_length_416_cov_9.434903	34409	416	9.43	31.73	0	Unknown
NODE_34665_length_412_cov_10.501401	34665	412	10.50	31.31	0	Unknown
NODE_34895_length_409_cov_11.271186	34895	409	11.27	33.25	0	Bacillus
NODE_35414_length_402_cov_10.317003	35414	402	10.32	30.60	0	Unknown
NODE_35487_length_401_cov_9.147399	35487	401	9.15	28.93	0	Unknown
NODE_36164_length_392_cov_16.563798	36164	392	16.56	29.59	0	Thermosediminibacter
NODE_36455_length_388_cov_8.993994	36455	388	8.99	27.58	0	Thermosediminibacter
NODE_36784_length_384_cov_12.465046	36784	384	12.47	35.16	0	Unknown
NODE_36965_length_382_cov_11.596330	36965	382	11.60	24.87	0	Clostridium
NODE_37290_length_378_cov_10.287926	37290	378	10.29	30.16	0	Unknown
NODE_38201_length_368_cov_13.888179	38201	368	13.89	26.90	0	Unknown
NODE_38318_length_367_cov_14.426282	38318	367	14.43	28.34	0	Unknown
NODE_38430_length_366_cov_12.482315	38430	366	12.48	33.33	0	Bacillus
NODE_38820_length_362_cov_16.224756	38820	362	16.22	34.53	0	Clostridium
NODE_39222_length_358_cov_10.683168	39222	358	10.68	29.33	0	Unknown
NODE_40116_length_349_cov_14.853741	40116	349	14.85	30.09	0	Clostridium
NODE_40324_length_347_cov_10.291096	40324	347	10.29	27.95	0	Unknown
NODE_40874_length_342_cov_10.902439	40874	342	10.90	33.04	0	Clostridium
NODE_42064_length_332_cov_12.527076	42064	332	12.53	34.04	0	Clostridium
NODE_42185_length_331_cov_8.500000	42185	331	8.50	33.23	0	Unknown
NODE_44454_length_313_cov_11.081395	44454	313	11.08	33.87	0	Clostridium
NODE_47325_length_293_cov_9.735294	47325	293	9.74	31.40	0	Alkaliphilus
NODE_47950_length_289_cov_10.820513	47950	289	10.82	34.26	0	Unknown
NODE_48448_length_286_cov_10.034632	48448	286	10.03	33.92	0	Fusobacterium
NODE_48933_length_283_cov_9.605263	48933	283	9.61	28.27	0	Unknown
NODE_51059_length_276_cov_10.185520	51059	276	10.19	33.70	0	Clostridium
NODE_56982_length_261_cov_8.932039	56982	261	8.93	31.42	0	Unknown
NODE_61353_length_251_cov_14.265306	61353	251	14.27	35.06	0	Acidaminococcus
NODE_63063_length_247_cov_9.979167	63063	247	9.98	31.98	0	Unknown
NODE_66149_length_240_cov_9.097297	66149	240	9.10	31.67	0	Unknown
NODE_68471_length_235_cov_13.372222	68471	235	13.37	27.23	0	Unknown
NODE_69896_length_232_cov_14.005650	69896	232	14.01	32.33	0	Unknown
NODE_70355_length_231_cov_8.886364	70355	231	8.89	27.27	0	Unknown
NODE_78766_length_213_cov_10.879747	78766	213	10.88	29.58	0	Unknown
NODE_80211_length_210_cov_10.425806	80211	210	10.43	29.52	0	Unknown
NODE_82225_length_206_cov_9.231788	82225	206	9.23	28.16	0	Unknown
NODE_82280_length_197_cov_8.316901	82280	197	8.32	31.47	0	Unknown
NODE_82318_length_192_cov_12.218978	82318	192	12.22	34.90	0	Unknown
NODE_82324_length_191_cov_11.279412	82324	191	11.28	31.94	0	Unknown
NODE_82342_length_189_cov_13.111940	82342	189	13.11	29.63	0	Clostridium
NODE_82369_length_186_cov_8.557252	82369	186	8.56	26.88	0	Unknown
NODE_82381_length_184_cov_13.085271	82381	184	13.09	30.43	0	Unknown
NODE_82389_length_182_cov_10.078740	82389	182	10.08	27.47	0	Clostridium
NODE_82522_length_165_cov_14.072727	82522	165	14.07	35.15	0	Clostridium
NODE_82539_length_163_cov_11.370370	82539	163	11.37	30.68	0	Unknown
NODE_82540_length_163_cov_9.833333	82540	163	9.83	28.83	0	Unknown
NODE_82541_length_163_cov_8.768519	82541	163	8.77	25.15	0	Unknown
NODE_82597_length_154_cov_15.353535	82597	154	15.35	26.62	0	Unknown
NODE_82656_length_144_cov_9.887640	82656	144	9.89	34.03	0	Unknown
NODE_82665_length_142_cov_14.885057	82665	142	14.89	32.39	0	Unknown
NODE_82666_length_142_cov_11.436782	82666	142	11.44	30.28	0	Unknown
NODE_82675_length_140_cov_15.929412	82675	140	15.93	25.71	0	Unknown
NODE_82719_length_134_cov_13.025316	82719	134	13.03	30.60	0	Unknown
NODE_82725_length_133_cov_9.269231	82725	133	9.27	27.07	0	Unknown
NODE_82760_length_128_cov_10.630137	82760	128	10.63	32.81	0	Unknown
NODE_82776_length_126_cov_15.408451	82776	126	15.41	34.13	0	Unknown
NODE_82777_length_126_cov_8.464789	82777	126	8.46	34.92	0	Unknown
NODE_82865_length_116_cov_16.065574	82865	116	16.07	25.86	0	Unknown
NODE_82866_length_116_cov_9.590164	82866	116	9.59	31.90	0	Unknown
NODE_82894_length_112_cov_9.403509	82894	112	9.40	30.36	0	Unknown
NODE_82917_length_111_cov_10.428571	82917	111	10.43	33.33	0	Unknown
NODE_82931_length_110_cov_9.890909	82931	110	9.89	31.82	0	Unknown
NODE_82958_length_109_cov_14.111111	82958	109	14.11	29.36	0	Unknown
NODE_82994_length_108_cov_10.660377	82994	108	10.66	25.00	0	Unknown
NODE_82995_length_108_cov_10.245283	82995	108	10.25	26.85	0	Unknown
NODE_83020_length_107_cov_13.846154	83020	107	13.85	28.04	0	Unknown
NODE_83043_length_106_cov_15.627451	83043	106	15.63	25.47	0	Unknown
NODE_83074_length_105_cov_15.740000	83074	105	15.74	27.62	0	Unknown
NODE_83117_length_103_cov_13.500000	83117	103	13.50	34.95	0	Unknown
NODE_83198_length_100_cov_15.311111	83198	100	15.31	26.00	0	Unknown
NODE_83199_length_100_cov_15.111111	83199	100	15.11	25.00	0	Unknown
NODE_83201_length_100_cov_8.755556	83201	100	8.76	27.00	0	Unknown
