NODE_1_length_489770_cov_80.470723	1	489770	80.47	30.31	100	Clostridium
NODE_4_length_434122_cov_90.775751	4	434122	90.78	31.28	0	Clostridium
NODE_18_length_209138_cov_85.719174	18	209138	85.72	31.84	0	Clostridium
NODE_30_length_152161_cov_80.216139	30	152161	80.22	32.00	0	Clostridium
NODE_36_length_139114_cov_81.712849	36	139114	81.71	30.68	0	Clostridium
NODE_44_length_123733_cov_124.671752	44	123733	124.67	31.39	0	Clostridium
NODE_52_length_116207_cov_78.202321	52	116207	78.20	30.64	0	Clostridium
NODE_57_length_112991_cov_95.169184	57	112991	95.17	31.68	0	Clostridium
NODE_60_length_110605_cov_84.817730	60	110605	84.82	32.56	100	Clostridium
NODE_62_length_109778_cov_87.862290	62	109778	87.86	30.69	0	Clostridium
NODE_76_length_104821_cov_136.007187	76	104821	136.01	31.91	0	Clostridium
NODE_79_length_101480_cov_129.500991	79	101480	129.50	31.13	0	Clostridium
NODE_93_length_95822_cov_133.194378	93	95822	133.19	32.58	0	Clostridium
NODE_95_length_95446_cov_120.364007	95	95446	120.36	30.10	0	Clostridium
NODE_99_length_93200_cov_86.979623	99	93200	86.98	30.85	100	Clostridium
NODE_110_length_88368_cov_110.402421	110	88368	110.40	31.50	0	Clostridium
NODE_112_length_87102_cov_130.658380	112	87102	130.66	31.23	0	Clostridium
NODE_114_length_86166_cov_74.168202	114	86166	74.17	32.20	0	Clostridium
NODE_119_length_84340_cov_80.321113	119	84340	80.32	32.79	0	Clostridium
NODE_124_length_79769_cov_129.526583	124	79769	129.53	30.84	0	Unknown
NODE_129_length_77382_cov_110.707916	129	77382	110.71	30.94	0	Clostridium
NODE_133_length_76683_cov_115.243697	133	76683	115.24	31.51	0	Clostridium
NODE_147_length_73308_cov_81.462179	147	73308	81.46	31.51	0	Clostridium
NODE_149_length_72726_cov_81.218767	149	72726	81.22	30.23	0	Clostridium
NODE_161_length_69356_cov_137.698431	161	69356	137.70	31.11	0	Clostridium
NODE_173_length_66492_cov_82.228397	173	66492	82.23	30.63	100	Clostridium
NODE_176_length_65760_cov_90.651366	176	65760	90.65	31.38	0	Clostridium
NODE_181_length_64978_cov_109.211943	181	64978	109.21	30.93	0	Clostridium
NODE_184_length_64326_cov_144.391981	184	64326	144.39	30.81	0	Clostridium
NODE_190_length_63096_cov_81.803810	190	63096	81.80	31.30	0	Clostridium
NODE_191_length_62714_cov_73.929045	191	62714	73.93	31.61	0	Clostridium
NODE_192_length_62629_cov_84.924202	192	62629	84.92	30.12	0	Clostridium
NODE_193_length_62490_cov_128.907872	193	62490	128.91	31.82	0	Clostridium
NODE_194_length_62241_cov_134.384958	194	62241	134.38	31.52	0	Clostridium
NODE_197_length_61697_cov_123.163087	197	61697	123.16	30.88	0	Unknown
NODE_198_length_61612_cov_142.114788	198	61612	142.11	32.15	0	Clostridium
NODE_208_length_60415_cov_136.218141	208	60415	136.22	29.83	0	Clostridium
NODE_211_length_59823_cov_121.420844	211	59823	121.42	30.84	0	Clostridium
NODE_218_length_58862_cov_107.870441	218	58862	107.87	30.70	0	Clostridium
NODE_220_length_58806_cov_135.934793	220	58806	135.93	30.98	0	Clostridium
NODE_221_length_58331_cov_99.373207	221	58331	99.37	30.72	0	Clostridium
NODE_222_length_58053_cov_76.745853	222	58053	76.75	32.32	0	Clostridium
NODE_225_length_57688_cov_126.164992	225	57688	126.16	31.58	200	Clostridium
NODE_229_length_57518_cov_146.743661	229	57518	146.74	32.43	0	Clostridium
NODE_231_length_57250_cov_144.169805	231	57250	144.17	31.66	0	Clostridium
NODE_232_length_57098_cov_144.480287	232	57098	144.48	31.21	0	Unknown
NODE_243_length_54960_cov_144.978672	243	54960	144.98	30.78	300	Unknown
NODE_257_length_53523_cov_135.093383	257	53523	135.09	31.11	0	Clostridium
NODE_267_length_51077_cov_106.216201	267	51077	106.22	31.30	0	Clostridium
NODE_272_length_50128_cov_74.650810	272	50128	74.65	30.64	0	Clostridium
NODE_274_length_50013_cov_140.769927	274	50013	140.77	31.49	0	Clostridium
NODE_278_length_49751_cov_108.913273	278	49751	108.91	31.34	0	Clostridium
NODE_281_length_49157_cov_122.989695	281	49157	122.99	30.30	0	Clostridium
NODE_283_length_49108_cov_147.637902	283	49108	147.64	31.04	100	Unknown
NODE_285_length_48824_cov_147.205499	285	48824	147.21	29.97	0	Clostridium
NODE_288_length_48510_cov_149.355815	288	48510	149.36	30.04	0	Clostridium
NODE_289_length_48442_cov_132.941307	289	48442	132.94	33.94	0	Unknown
NODE_297_length_47121_cov_88.495581	297	47121	88.50	30.30	0	Clostridium
NODE_301_length_46547_cov_82.302848	301	46547	82.30	32.43	0	Clostridium
NODE_306_length_46297_cov_79.385342	306	46297	79.39	30.56	0	Clostridium
NODE_315_length_45474_cov_156.996918	315	45474	157.00	31.47	100	Clostridium
NODE_318_length_45325_cov_149.547515	318	45325	149.55	30.52	0	Clostridium
NODE_325_length_44607_cov_86.484602	325	44607	86.48	31.10	0	Clostridium
NODE_328_length_44025_cov_82.974005	328	44025	82.97	28.85	0	Bacillus
NODE_333_length_43577_cov_110.479849	333	43577	110.48	30.94	0	Clostridium
NODE_334_length_43497_cov_122.776000	334	43497	122.78	31.60	0	Clostridium
NODE_336_length_43276_cov_122.724601	336	43276	122.72	32.34	0	Clostridium
NODE_338_length_42977_cov_71.706444	338	42977	71.71	29.70	0	Clostridium
NODE_341_length_42642_cov_92.322188	341	42642	92.32	31.36	0	Clostridium
NODE_342_length_42625_cov_137.426591	342	42625	137.43	31.15	0	Clostridium
NODE_346_length_42334_cov_119.052366	346	42334	119.05	31.27	0	Clostridium
NODE_349_length_41724_cov_129.966690	349	41724	129.97	32.48	0	Clostridium
NODE_356_length_40419_cov_85.083862	356	40419	85.08	30.53	0	Clostridium
NODE_360_length_40211_cov_127.737748	360	40211	127.74	31.60	0	Clostridium
NODE_361_length_40107_cov_104.079522	361	40107	104.08	30.69	0	Clostridium
NODE_362_length_40060_cov_96.803000	362	40060	96.80	30.70	0	Clostridium
NODE_366_length_39917_cov_142.440871	366	39917	142.44	31.52	0	Clostridium
NODE_371_length_39368_cov_162.295577	371	39368	162.30	31.51	100	Clostridium
NODE_374_length_39011_cov_134.150400	374	39011	134.15	31.08	0	Clostridium
NODE_377_length_38815_cov_117.486455	377	38815	117.49	31.55	0	Clostridium
NODE_380_length_38654_cov_120.967875	380	38654	120.97	32.05	0	Unknown
NODE_390_length_37652_cov_128.814347	390	37652	128.81	33.28	0	Clostridium
NODE_391_length_37581_cov_148.361270	391	37581	148.36	32.00	0	Clostridium
NODE_396_length_37187_cov_80.744937	396	37187	80.74	31.35	0	Clostridium
NODE_398_length_37117_cov_132.533107	398	37117	132.53	31.40	0	Clostridium
NODE_399_length_36830_cov_155.696071	399	36830	155.70	31.15	0	Unknown
NODE_401_length_36720_cov_99.677131	401	36720	99.68	31.72	0	Clostridium
NODE_403_length_36660_cov_129.328398	403	36660	129.33	30.59	100	Unknown
NODE_410_length_35612_cov_88.381753	410	35612	88.38	30.34	0	Clostridium
NODE_411_length_35595_cov_148.599522	411	35595	148.60	30.10	0	Clostridium
NODE_414_length_35472_cov_110.951888	414	35472	110.95	29.39	0	Clostridium
NODE_415_length_35423_cov_160.556944	415	35423	160.56	31.46	0	Clostridium
NODE_418_length_35319_cov_88.934749	418	35319	88.93	29.97	0	Clostridium
NODE_421_length_35134_cov_143.588586	421	35134	143.59	31.04	0	Clostridium
NODE_422_length_34989_cov_162.375308	422	34989	162.38	31.63	100	Clostridium
NODE_424_length_34914_cov_142.900112	424	34914	142.90	30.89	0	Clostridium
NODE_427_length_34718_cov_161.153853	427	34718	161.15	31.41	0	Clostridium
NODE_428_length_34715_cov_94.068984	428	34715	94.07	30.61	0	Clostridium
NODE_429_length_34552_cov_122.756964	429	34552	122.76	30.88	0	Clostridium
NODE_442_length_33706_cov_91.295623	442	33706	91.30	30.71	0	Unknown
NODE_443_length_33699_cov_102.036470	443	33699	102.04	32.54	0	Clostridium
NODE_447_length_33247_cov_110.266691	447	33247	110.27	30.90	0	Clostridium
NODE_448_length_33077_cov_140.275271	448	33077	140.28	31.34	0	Clostridium
NODE_449_length_33022_cov_150.007037	449	33022	150.01	30.84	0	Clostridium
NODE_458_length_32581_cov_150.523489	458	32581	150.52	30.68	0	Clostridium
NODE_464_length_32114_cov_99.037275	464	32114	99.04	29.75	0	Clostridium
NODE_473_length_31454_cov_138.600847	473	31454	138.60	32.70	0	Clostridium
NODE_480_length_30676_cov_147.091114	480	30676	147.09	32.09	0	Clostridium
NODE_490_length_29832_cov_118.336703	490	29832	118.34	33.42	100	Clostridium
NODE_499_length_29236_cov_77.901203	499	29236	77.90	29.63	0	Clostridium
NODE_500_length_29228_cov_142.674562	500	29228	142.67	31.06	0	Unknown
NODE_502_length_29205_cov_130.285317	502	29205	130.29	30.40	0	Clostridium
NODE_507_length_28951_cov_81.605482	507	28951	81.61	30.60	0	Clostridium
NODE_510_length_28886_cov_145.485797	510	28886	145.49	30.35	0	Clostridium
NODE_513_length_28557_cov_116.155463	513	28557	116.16	30.45	0	Clostridium
NODE_517_length_28216_cov_146.545719	517	28216	146.55	31.42	0	Clostridium
NODE_523_length_27859_cov_128.643217	523	27859	128.64	30.35	0	Clostridium
NODE_524_length_27845_cov_119.220259	524	27845	119.22	31.49	0	Clostridium
NODE_527_length_27774_cov_137.626538	527	27774	137.63	31.53	0	Clostridium
NODE_530_length_27495_cov_79.366363	530	27495	79.37	29.29	0	Clostridium
NODE_531_length_27459_cov_172.479638	531	27459	172.48	31.52	100	Clostridium
NODE_533_length_27150_cov_89.436575	533	27150	89.44	31.32	0	Clostridium
NODE_535_length_27053_cov_135.675976	535	27053	135.68	31.77	0	Unknown
NODE_540_length_26742_cov_120.100836	540	26742	120.10	30.95	0	Clostridium
NODE_541_length_26715_cov_79.922356	541	26715	79.92	32.20	0	Clostridium
NODE_542_length_26690_cov_69.561554	542	26690	69.56	29.74	0	Clostridium
NODE_545_length_26593_cov_127.160788	545	26593	127.16	31.67	0	Clostridium
NODE_557_length_25923_cov_82.300874	557	25923	82.30	30.95	0	Clostridium
NODE_561_length_25718_cov_113.950240	561	25718	113.95	32.59	0	Clostridium
NODE_572_length_25247_cov_156.318554	572	25247	156.32	31.33	100	Clostridium
NODE_575_length_25015_cov_150.373718	575	25015	150.37	30.95	0	Clostridium
NODE_578_length_24959_cov_85.399574	578	24959	85.40	30.65	0	Clostridium
NODE_579_length_24956_cov_147.540902	579	24956	147.54	28.90	0	Unknown
NODE_580_length_24882_cov_139.336609	580	24882	139.34	30.38	0	Clostridium
NODE_584_length_24523_cov_166.316740	584	24523	166.32	31.24	200	Clostridium
NODE_585_length_24516_cov_144.614366	585	24516	144.61	30.35	0	Clostridium
NODE_588_length_24363_cov_132.522338	588	24363	132.52	30.46	0	Clostridium
NODE_591_length_24264_cov_158.636871	591	24264	158.64	32.06	0	Clostridium
NODE_592_length_24224_cov_145.773801	592	24224	145.77	32.27	0	Clostridium
NODE_605_length_23547_cov_80.165929	605	23547	80.17	30.88	0	Clostridium
NODE_606_length_23524_cov_137.498189	606	23524	137.50	31.10	0	Clostridium
NODE_614_length_23172_cov_147.801488	614	23172	147.80	31.70	0	Clostridium
NODE_616_length_23040_cov_92.909506	616	23040	92.91	31.42	0	Unknown
NODE_617_length_22933_cov_145.102544	617	22933	145.10	31.31	0	Clostridium
NODE_618_length_22928_cov_128.016832	618	22928	128.02	30.05	0	Clostridium
NODE_619_length_22928_cov_103.730905	619	22928	103.73	29.54	0	Clostridium
NODE_630_length_22405_cov_84.709978	630	22405	84.71	33.78	0	Clostridium
NODE_632_length_22322_cov_164.719989	632	22322	164.72	31.48	0	Clostridium
NODE_636_length_22249_cov_150.516987	636	22249	150.52	31.15	0	Clostridium
NODE_640_length_22153_cov_112.701692	640	22153	112.70	31.20	0	Clostridium
NODE_646_length_21982_cov_133.177224	646	21982	133.18	29.50	0	Clostridium
NODE_647_length_21928_cov_99.954739	647	21928	99.95	29.88	0	Clostridium
NODE_648_length_21924_cov_146.406557	648	21924	146.41	30.77	0	Clostridium
NODE_649_length_21913_cov_148.692424	649	21913	148.69	31.22	0	Clostridium
NODE_652_length_21860_cov_144.184866	652	21860	144.18	31.88	0	Clostridium
NODE_655_length_21789_cov_160.606055	655	21789	160.61	31.75	0	Clostridium
NODE_656_length_21762_cov_95.367992	656	21762	95.37	28.63	0	Clostridium
NODE_664_length_21505_cov_138.151515	664	21505	138.15	31.75	0	Clostridium
NODE_675_length_21110_cov_83.037901	675	21110	83.04	30.56	0	Clostridium
NODE_680_length_20919_cov_146.088190	680	20919	146.09	30.61	0	Clostridium
NODE_683_length_20809_cov_137.236051	683	20809	137.24	31.17	0	Clostridium
NODE_684_length_20800_cov_134.054278	684	20800	134.05	31.07	0	Clostridium
NODE_685_length_20743_cov_148.965681	685	20743	148.97	31.30	0	Clostridium
NODE_688_length_20669_cov_142.713156	688	20669	142.71	30.86	0	Clostridium
NODE_693_length_20483_cov_151.325729	693	20483	151.33	30.84	100	Clostridium
NODE_695_length_20444_cov_107.740841	695	20444	107.74	31.18	0	Clostridium
NODE_698_length_20350_cov_161.863710	698	20350	161.86	31.60	0	Clostridium
NODE_700_length_20312_cov_86.098386	700	20312	86.10	33.51	0	Clostridium
NODE_707_length_19833_cov_128.634847	707	19833	128.63	30.40	0	Clostridium
NODE_708_length_19800_cov_76.754621	708	19800	76.75	33.39	0	Clostridium
NODE_709_length_19793_cov_127.174131	709	19793	127.17	32.27	0	Clostridium
NODE_710_length_19791_cov_153.459009	710	19791	153.46	32.77	0	Clostridium
NODE_712_length_19744_cov_73.695058	712	19744	73.70	29.17	0	Clostridium
NODE_716_length_19634_cov_136.390623	716	19634	136.39	30.82	0	Clostridium
NODE_718_length_19572_cov_113.993852	718	19572	113.99	30.62	100	Clostridium
NODE_721_length_19531_cov_140.951325	721	19531	140.95	31.25	100	Clostridium
NODE_722_length_19518_cov_116.980681	722	19518	116.98	30.17	0	Bacillus
NODE_723_length_19510_cov_145.229658	723	19510	145.23	30.54	0	Clostridium
NODE_727_length_19425_cov_112.514972	727	19425	112.51	31.22	0	Clostridium
NODE_735_length_19228_cov_166.798988	735	19228	166.80	31.73	0	Clostridium
NODE_742_length_18852_cov_109.587966	742	18852	109.59	31.74	0	Clostridium
NODE_748_length_18572_cov_127.613490	748	18572	127.61	29.27	0	Clostridium
NODE_751_length_18439_cov_150.201371	751	18439	150.20	30.34	200	Clostridium
NODE_760_length_18044_cov_108.832398	760	18044	108.83	31.08	0	Clostridium
NODE_762_length_17995_cov_152.318172	762	17995	152.32	31.14	0	Unknown
NODE_769_length_17843_cov_129.151113	769	17843	129.15	31.08	0	Clostridium
NODE_775_length_17733_cov_112.304729	775	17733	112.30	28.90	0	Unknown
NODE_779_length_17665_cov_158.349233	779	17665	158.35	29.96	100	Clostridium
NODE_780_length_17639_cov_163.380573	780	17639	163.38	30.95	0	Clostridium
NODE_782_length_17626_cov_152.682261	782	17626	152.68	30.20	100	Unknown
NODE_787_length_17472_cov_148.302463	787	17472	148.30	31.39	0	Clostridium
NODE_792_length_17343_cov_154.109556	792	17343	154.11	30.35	100	Clostridium
NODE_793_length_17253_cov_122.160309	793	17253	122.16	31.02	0	Clostridium
NODE_794_length_17248_cov_157.262374	794	17248	157.26	32.39	100	Clostridium
NODE_796_length_17214_cov_77.234862	796	17214	77.23	29.20	0	Clostridium
NODE_804_length_16934_cov_169.963446	804	16934	169.96	30.10	100	Clostridium
NODE_808_length_16848_cov_138.638302	808	16848	138.64	32.78	0	Clostridium
NODE_823_length_16354_cov_154.097061	823	16354	154.10	32.68	100	Clostridium
NODE_832_length_16206_cov_164.370565	832	16206	164.37	31.89	0	Alkaliphilus
NODE_838_length_16090_cov_81.852884	838	16090	81.85	32.36	0	Clostridium
NODE_841_length_16023_cov_144.713051	841	16023	144.71	30.77	0	Clostridium
NODE_845_length_15942_cov_143.392648	845	15942	143.39	31.41	0	Clostridium
NODE_848_length_15897_cov_153.576190	848	15897	153.58	31.43	0	Clostridium
NODE_853_length_15766_cov_150.730698	853	15766	150.73	28.35	0	Clostridium
NODE_863_length_15549_cov_162.781786	863	15549	162.78	31.08	100	Unknown
NODE_866_length_15519_cov_98.763386	866	15519	98.76	31.75	0	Clostridium
NODE_872_length_15395_cov_128.173924	872	15395	128.17	30.40	0	Clostridium
NODE_875_length_15324_cov_146.832078	875	15324	146.83	32.69	0	Clostridium
NODE_879_length_15303_cov_95.703502	879	15303	95.70	34.05	0	Clostridium
NODE_884_length_15155_cov_144.369735	884	15155	144.37	31.90	0	Clostridium
NODE_888_length_15062_cov_81.595389	888	15062	81.60	31.01	0	Clostridium
NODE_902_length_14793_cov_156.988329	902	14793	156.99	30.17	0	Clostridium
NODE_906_length_14758_cov_91.560022	906	14758	91.56	29.80	0	Clostridium
NODE_912_length_14695_cov_79.854372	912	14695	79.85	30.80	0	Clostridium
NODE_928_length_14366_cov_78.302355	928	14366	78.30	33.02	0	Clostridium
NODE_930_length_14335_cov_80.005882	930	14335	80.01	32.69	0	Clostridium
NODE_941_length_14092_cov_135.924343	941	14092	135.92	31.47	0	Clostridium
NODE_967_length_13685_cov_145.511739	967	13685	145.51	29.34	100	Clostridium
NODE_971_length_13546_cov_152.351494	971	13546	152.35	31.43	0	Unknown
NODE_973_length_13491_cov_141.545549	973	13491	141.55	30.32	0	Clostridium
NODE_977_length_13446_cov_71.294451	977	13446	71.29	30.08	0	Clostridium
NODE_980_length_13434_cov_157.110771	980	13434	157.11	30.45	100	Clostridium
NODE_981_length_13415_cov_138.591317	981	13415	138.59	32.28	0	Clostridium
NODE_984_length_13388_cov_95.703068	984	13388	95.70	32.81	0	Eubacterium
NODE_994_length_13251_cov_157.656487	994	13251	157.66	30.64	100	Clostridium
NODE_996_length_13243_cov_146.290643	996	13243	146.29	32.41	0	Clostridium
NODE_1003_length_13147_cov_152.569126	1003	13147	152.57	31.48	0	Clostridium
NODE_1007_length_13128_cov_134.893903	1007	13128	134.89	31.04	0	Unknown
NODE_1018_length_13023_cov_154.916255	1018	13023	154.92	31.80	0	Clostridium
NODE_1029_length_12927_cov_152.627098	1029	12927	152.63	31.21	0	Clostridium
NODE_1035_length_12836_cov_154.142555	1035	12836	154.14	31.39	0	Unknown
NODE_1036_length_12831_cov_154.890420	1036	12831	154.89	31.78	0	Clostridium
NODE_1039_length_12799_cov_148.807046	1039	12799	148.81	29.52	0	Clostridium
NODE_1052_length_12594_cov_108.598373	1052	12594	108.60	30.62	0	Clostridium
NODE_1055_length_12568_cov_147.541836	1055	12568	147.54	31.33	0	Unknown
NODE_1061_length_12458_cov_71.176409	1061	12458	71.18	28.25	0	Bacillus
NODE_1070_length_12368_cov_149.486884	1070	12368	149.49	30.51	0	Eubacterium
NODE_1073_length_12337_cov_96.281387	1073	12337	96.28	31.17	0	Clostridium
NODE_1076_length_12306_cov_172.323402	1076	12306	172.32	32.25	0	Clostridium
NODE_1077_length_12300_cov_135.424173	1077	12300	135.42	29.96	0	Clostridium
NODE_1081_length_12247_cov_138.460958	1081	12247	138.46	32.48	0	Unknown
NODE_1087_length_12127_cov_159.786448	1087	12127	159.79	30.69	0	Clostridium
NODE_1093_length_12077_cov_154.609882	1093	12077	154.61	32.46	0	Clostridium
NODE_1094_length_12054_cov_96.343529	1094	12054	96.34	30.37	0	Clostridium
NODE_1095_length_12033_cov_144.888295	1095	12033	144.89	31.34	0	Unknown
NODE_1106_length_11820_cov_84.774926	1106	11820	84.77	29.87	0	Clostridium
NODE_1109_length_11737_cov_159.679507	1109	11737	159.68	31.45	0	Alkaliphilus
NODE_1135_length_11427_cov_156.315600	1135	11427	156.32	32.07	0	Clostridium
NODE_1141_length_11318_cov_72.269644	1141	11318	72.27	33.59	0	Clostridium
NODE_1147_length_11262_cov_151.597216	1147	11262	151.60	31.73	0	Clostridium
NODE_1148_length_11253_cov_126.361047	1148	11253	126.36	31.11	0	Clostridium
NODE_1165_length_11101_cov_113.514938	1165	11101	113.51	31.52	0	Clostridium
NODE_1172_length_11043_cov_71.443575	1172	11043	71.44	31.19	0	Clostridium
NODE_1189_length_10884_cov_165.013205	1189	10884	165.01	30.92	100	Clostridium
NODE_1250_length_10344_cov_145.565264	1250	10344	145.57	32.11	0	Clostridium
NODE_1253_length_10312_cov_126.745540	1253	10312	126.75	32.36	0	Clostridium
NODE_1276_length_10111_cov_122.869829	1276	10111	122.87	31.09	0	Clostridium
NODE_1281_length_10077_cov_171.031032	1281	10077	171.03	30.79	0	Clostridium
NODE_1291_length_9996_cov_110.650136	1291	9996	110.65	31.74	0	Clostridium
NODE_1294_length_9962_cov_115.577269	1294	9962	115.58	32.36	0	Clostridium
NODE_1307_length_9776_cov_159.734904	1307	9776	159.73	32.04	0	Clostridium
NODE_1311_length_9762_cov_160.494282	1311	9762	160.49	32.00	0	Clostridium
NODE_1322_length_9703_cov_145.223051	1322	9703	145.22	32.08	0	Clostridium
NODE_1343_length_9555_cov_71.696632	1343	9555	71.70	30.15	0	Clostridium
NODE_1348_length_9500_cov_138.637904	1348	9500	138.64	31.59	0	Clostridium
NODE_1354_length_9460_cov_125.921531	1354	9460	125.92	29.63	0	Clostridium
NODE_1362_length_9384_cov_162.723336	1362	9384	162.72	31.62	0	Clostridium
NODE_1367_length_9334_cov_99.009592	1367	9334	99.01	29.53	0	Clostridium
NODE_1383_length_9265_cov_173.959826	1383	9265	173.96	31.30	0	Clostridium
NODE_1384_length_9239_cov_170.170841	1384	9239	170.17	33.54	0	Thermoanaerobacter
NODE_1407_length_9068_cov_126.154665	1407	9068	126.15	32.45	0	Prevotella
NODE_1411_length_9050_cov_70.745859	1411	9050	70.75	30.08	0	Clostridium
NODE_1419_length_8987_cov_128.823780	1419	8987	128.82	29.84	0	Clostridium
NODE_1420_length_8984_cov_85.237317	1420	8984	85.24	33.47	0	Clostridium
NODE_1446_length_8859_cov_159.930940	1446	8859	159.93	29.50	0	Clostridium
NODE_1449_length_8838_cov_145.166458	1449	8838	145.17	30.57	0	Clostridium
NODE_1459_length_8782_cov_126.225392	1459	8782	126.23	32.38	0	Clostridium
NODE_1465_length_8750_cov_157.396665	1465	8750	157.40	32.67	0	Clostridium
NODE_1472_length_8715_cov_163.586952	1472	8715	163.59	28.74	0	Clostridium
NODE_1489_length_8629_cov_121.023560	1489	8629	121.02	31.53	0	Clostridium
NODE_1493_length_8598_cov_140.227321	1493	8598	140.23	31.67	0	Clostridium
NODE_1496_length_8586_cov_92.841519	1496	8586	92.84	30.77	0	Clostridium
NODE_1511_length_8538_cov_96.560415	1511	8538	96.56	30.18	0	Clostridium
NODE_1534_length_8387_cov_131.727796	1534	8387	131.73	31.43	0	Clostridium
NODE_1557_length_8311_cov_169.066255	1557	8311	169.07	30.36	0	Clostridium
NODE_1558_length_8304_cov_148.811856	1558	8304	148.81	30.29	0	Clostridium
NODE_1570_length_8232_cov_159.855815	1570	8232	159.86	30.98	0	Clostridium
NODE_1596_length_8142_cov_149.024113	1596	8142	149.02	30.18	0	Clostridium
NODE_1598_length_8138_cov_148.287146	1598	8138	148.29	32.54	0	Clostridium
NODE_1609_length_8070_cov_136.641672	1609	8070	136.64	30.83	0	Clostridium
NODE_1627_length_7989_cov_123.283211	1627	7989	123.28	30.44	0	Alkaliphilus
NODE_1631_length_7976_cov_137.791567	1631	7976	137.79	30.35	0	Clostridium
NODE_1640_length_7950_cov_129.021786	1640	7950	129.02	32.67	0	Clostridium
NODE_1645_length_7935_cov_90.426523	1645	7935	90.43	31.38	0	Clostridium
NODE_1659_length_7874_cov_141.381123	1659	7874	141.38	30.58	0	Clostridium
NODE_1721_length_7628_cov_113.503367	1721	7628	113.50	29.01	0	Unknown
NODE_1722_length_7625_cov_127.952708	1722	7625	127.95	30.43	0	Clostridium
NODE_1725_length_7617_cov_133.583840	1725	7617	133.58	30.37	0	Clostridium
NODE_1772_length_7441_cov_73.523964	1772	7441	73.52	29.51	0	Clostridium
NODE_1773_length_7440_cov_166.888829	1773	7440	166.89	32.07	0	Clostridium
NODE_1780_length_7417_cov_137.115729	1780	7417	137.12	29.78	0	Clostridium
NODE_1819_length_7305_cov_160.970207	1819	7305	160.97	33.14	0	Clostridium
NODE_1851_length_7199_cov_143.474104	1851	7199	143.47	28.70	0	Clostridium
NODE_1923_length_6921_cov_131.135013	1923	6921	131.14	30.78	0	Clostridium
NODE_1959_length_6821_cov_161.231599	1959	6821	161.23	32.09	0	Clostridium
NODE_1961_length_6819_cov_117.276168	1961	6819	117.28	31.40	0	Bacteroides
NODE_1987_length_6742_cov_72.499626	1987	6742	72.50	33.89	0	Clostridium
NODE_2018_length_6645_cov_153.176176	2018	6645	153.18	31.23	0	Clostridium
NODE_2019_length_6644_cov_150.857642	2019	6644	150.86	31.11	0	Clostridium
NODE_2022_length_6630_cov_149.451711	2022	6630	149.45	34.21	0	Clostridium
NODE_2026_length_6613_cov_131.758615	2026	6613	131.76	33.33	0	Clostridium
NODE_2098_length_6407_cov_159.101228	2098	6407	159.10	32.92	0	Clostridium
NODE_2101_length_6404_cov_90.083320	2101	6404	90.08	32.29	0	Clostridium
NODE_2108_length_6386_cov_129.811246	2108	6386	129.81	33.56	0	Clostridium
NODE_2112_length_6375_cov_170.717247	2112	6375	170.72	30.49	100	Clostridium
NODE_2123_length_6341_cov_153.926185	2123	6341	153.93	30.36	0	Clostridium
NODE_2129_length_6324_cov_135.059978	2129	6324	135.06	28.89	0	Clostridium
NODE_2133_length_6302_cov_163.403874	2133	6302	163.40	32.39	0	Clostridium
NODE_2135_length_6296_cov_140.282967	2135	6296	140.28	30.81	0	Clostridium
NODE_2137_length_6292_cov_75.506173	2137	6292	75.51	31.58	0	Unknown
NODE_2141_length_6273_cov_173.722580	2141	6273	173.72	31.85	0	Clostridium
NODE_2143_length_6264_cov_135.888388	2143	6264	135.89	31.91	0	Clostridium
NODE_2145_length_6262_cov_126.394877	2145	6262	126.39	29.13	0	Clostridium
NODE_2147_length_6260_cov_167.608219	2147	6260	167.61	31.89	0	Clostridium
NODE_2149_length_6254_cov_135.327795	2149	6254	135.33	30.65	0	Clostridium
NODE_2153_length_6243_cov_121.154654	2153	6243	121.15	29.09	0	Clostridium
NODE_2161_length_6226_cov_116.802787	2161	6226	116.80	33.22	0	Parabacteroides
NODE_2210_length_6102_cov_112.946750	2210	6102	112.95	31.09	0	Clostridium
NODE_2241_length_6041_cov_82.265954	2241	6041	82.27	31.39	0	Clostridium
NODE_2248_length_6016_cov_108.432142	2248	6016	108.43	30.00	0	Bacillus
NODE_2300_length_5895_cov_84.941610	2300	5895	84.94	32.67	0	Clostridium
NODE_2325_length_5841_cov_127.052713	2325	5841	127.05	30.46	0	Unknown
NODE_2404_length_5641_cov_136.003401	2404	5641	136.00	31.47	0	Halothermothrix
NODE_2405_length_5639_cov_100.267729	2405	5639	100.27	30.93	0	Clostridium
NODE_2424_length_5608_cov_160.093823	2424	5608	160.09	32.88	0	Clostridium
NODE_2425_length_5608_cov_157.816316	2425	5608	157.82	32.86	0	Clostridium
NODE_2447_length_5563_cov_144.848039	2447	5563	144.85	29.10	0	Clostridium
NODE_2479_length_5501_cov_103.177562	2479	5501	103.18	29.92	0	Clostridium
NODE_2489_length_5474_cov_92.011995	2489	5474	92.01	32.86	0	Clostridium
NODE_2503_length_5451_cov_138.216086	2503	5451	138.22	34.05	0	Clostridium
NODE_2577_length_5302_cov_109.925291	2577	5302	109.93	28.88	0	Clostridium
NODE_2599_length_5252_cov_172.078892	2599	5252	172.08	31.26	0	Clostridium
NODE_2627_length_5194_cov_103.913018	2627	5194	103.91	32.00	0	Clostridium
NODE_2632_length_5184_cov_81.539676	2632	5184	81.54	29.53	0	Clostridium
NODE_2707_length_5065_cov_169.681038	2707	5065	169.68	32.34	0	Clostridium
NODE_2716_length_5040_cov_159.226680	2716	5040	159.23	30.50	0	Thermosediminibacter
NODE_2750_length_4972_cov_74.342892	2750	4972	74.34	32.76	0	Clostridium
NODE_2796_length_4906_cov_138.933622	2796	4906	138.93	31.84	0	Bacillus
NODE_2811_length_4882_cov_130.571784	2811	4882	130.57	31.54	0	Clostridium
NODE_2889_length_4775_cov_163.268008	2889	4775	163.27	27.48	0	Clostridium
NODE_2981_length_4650_cov_82.716866	2981	4650	82.72	31.68	0	Clostridium
NODE_3061_length_4552_cov_133.268846	3061	4552	133.27	32.10	0	Natranaerobius
NODE_3129_length_4458_cov_150.302975	3129	4458	150.30	32.66	0	Clostridium
NODE_3186_length_4387_cov_143.418744	3186	4387	143.42	28.40	0	Clostridium
NODE_3191_length_4379_cov_168.505088	3191	4379	168.51	31.49	0	Unknown
NODE_3212_length_4352_cov_112.586223	3212	4352	112.59	31.57	0	Clostridium
NODE_3215_length_4345_cov_112.765967	3215	4345	112.77	30.20	0	Alkaliphilus
NODE_3238_length_4318_cov_120.172414	3238	4318	120.17	30.69	0	Clostridium
NODE_3257_length_4290_cov_128.394805	3257	4290	128.39	33.03	0	Clostridium
NODE_3276_length_4271_cov_159.982685	3276	4271	159.98	32.17	0	Desulfitobacterium
NODE_3293_length_4248_cov_146.333651	3293	4248	146.33	30.37	0	Clostridium
NODE_3302_length_4239_cov_146.822419	3302	4239	146.82	29.44	0	Alkaliphilus
NODE_3304_length_4232_cov_84.924826	3304	4232	84.92	31.33	0	Clostridium
NODE_3343_length_4184_cov_76.390651	3343	4184	76.39	33.53	0	Clostridium
NODE_3355_length_4173_cov_128.911608	3355	4173	128.91	27.96	0	Clostridium
NODE_3360_length_4169_cov_149.740885	3360	4169	149.74	28.76	0	Clostridium
NODE_3371_length_4153_cov_145.615910	3371	4153	145.62	29.83	0	Clostridium
NODE_3408_length_4119_cov_87.011319	3408	4119	87.01	31.25	0	Clostridium
NODE_3415_length_4112_cov_109.016268	3415	4112	109.02	29.86	0	Clostridium
NODE_3485_length_4032_cov_69.960523	3485	4032	69.96	27.33	0	Clostridium
NODE_3496_length_4020_cov_122.126608	3496	4020	122.13	29.75	0	Clostridium
NODE_3535_length_3976_cov_166.568988	3535	3976	166.57	29.38	0	Clostridium
NODE_3539_length_3972_cov_126.474853	3539	3972	126.47	29.00	0	Clostridium
NODE_3550_length_3964_cov_141.963674	3550	3964	141.96	30.37	0	Clostridium
NODE_3578_length_3936_cov_110.529245	3578	3936	110.53	29.83	0	Clostridium
NODE_3591_length_3921_cov_148.244439	3591	3921	148.24	30.63	0	Clostridium
NODE_3593_length_3918_cov_83.799379	3593	3918	83.80	33.41	0	Clostridium
NODE_3694_length_3828_cov_141.807580	3694	3828	141.81	29.65	0	Clostridium
NODE_3707_length_3816_cov_144.814677	3707	3816	144.81	29.38	0	Nostoc
NODE_3748_length_3776_cov_93.188659	3748	3776	93.19	28.66	0	Clostridium
NODE_3777_length_3741_cov_133.281063	3777	3741	133.28	28.39	0	Shewanella
NODE_3801_length_3724_cov_159.564186	3801	3724	159.56	32.65	0	Caldicellulosiruptor
NODE_3803_length_3722_cov_147.600764	3803	3722	147.60	29.77	0	Alkaliphilus
NODE_3833_length_3696_cov_76.672343	3833	3696	76.67	28.41	0	Clostridium
NODE_3906_length_3638_cov_71.706391	3906	3638	71.71	30.32	0	Desulfitobacterium
NODE_3924_length_3620_cov_164.233941	3924	3620	164.23	32.49	0	Clostridium
NODE_3973_length_3587_cov_143.354190	3973	3587	143.35	31.20	0	Clostridium
NODE_4055_length_3524_cov_157.490920	4055	3524	157.49	33.83	0	Clostridium
NODE_4056_length_3523_cov_158.908304	4056	3523	158.91	32.22	0	Clostridium
NODE_4059_length_3518_cov_144.386081	4059	3518	144.39	29.99	0	Clostridium
NODE_4109_length_3484_cov_170.149315	4109	3484	170.15	27.87	0	Clostridium
NODE_4118_length_3476_cov_84.586671	4118	3476	84.59	32.22	0	Clostridium
NODE_4121_length_3474_cov_159.238374	4121	3474	159.24	32.21	0	Clostridium
NODE_4132_length_3465_cov_156.636070	4132	3465	156.64	32.47	0	Clostridium
NODE_4405_length_3270_cov_76.397512	4405	3270	76.40	29.97	0	Clostridium
NODE_4443_length_3249_cov_139.897621	4443	3249	139.90	30.25	0	Clostridium
NODE_4457_length_3241_cov_72.751412	4457	3241	72.75	30.18	0	Clostridium
NODE_4481_length_3227_cov_113.366961	4481	3227	113.37	28.39	0	Clostridium
NODE_4538_length_3186_cov_77.239221	4538	3186	77.24	29.91	0	Streptomyces
NODE_4624_length_3126_cov_156.750244	4624	3126	156.75	32.60	0	Clostridium
NODE_4650_length_3109_cov_164.349705	4650	3109	164.35	31.01	0	Clostridium
NODE_4653_length_3107_cov_74.140891	4653	3107	74.14	30.93	0	Clostridium
NODE_4660_length_3104_cov_111.246966	4660	3104	111.25	30.90	0	Unknown
NODE_4723_length_3060_cov_160.851248	4723	3060	160.85	30.43	0	Clostridium
NODE_4821_length_2996_cov_170.401564	4821	2996	170.40	32.58	0	Clostridium
NODE_4847_length_2981_cov_87.631579	4847	2981	87.63	29.18	0	Clostridium
NODE_4863_length_2973_cov_105.280672	4863	2973	105.28	31.92	0	Clostridium
NODE_4885_length_2960_cov_98.710843	4885	2960	98.71	30.00	0	Clostridium
NODE_4964_length_2917_cov_95.030049	4964	2917	95.03	31.98	0	Clostridium
NODE_5001_length_2896_cov_151.174938	5001	2896	151.17	28.07	0	Alkaliphilus
NODE_5033_length_2878_cov_110.447396	5033	2878	110.45	29.36	0	Clostridium
NODE_5051_length_2873_cov_161.735273	5051	2873	161.74	30.80	0	Unknown
NODE_5081_length_2853_cov_148.477841	5081	2853	148.48	31.97	0	Clostridium
NODE_5126_length_2829_cov_160.269286	5126	2829	160.27	30.40	0	Clostridium
NODE_5252_length_2758_cov_161.408065	5252	2758	161.41	30.38	0	Clostridium
NODE_5290_length_2742_cov_157.342761	5290	2742	157.34	33.19	0	Clostridium
NODE_5303_length_2736_cov_173.192465	5303	2736	173.19	29.75	0	Clostridium
NODE_5308_length_2733_cov_156.245332	5308	2733	156.25	30.08	0	Clostridium
NODE_5324_length_2721_cov_127.222431	5324	2721	127.22	28.85	0	Unknown
NODE_5343_length_2709_cov_158.943858	5343	2709	158.94	30.45	0	Clostridium
NODE_5369_length_2698_cov_99.870602	5369	2698	99.87	31.65	0	Unknown
NODE_5390_length_2688_cov_145.254083	5390	2688	145.25	29.24	0	Alkaliphilus
NODE_5397_length_2683_cov_93.262938	5397	2683	93.26	32.65	0	Clostridium
NODE_5401_length_2681_cov_82.415461	5401	2681	82.42	28.27	0	Clostridium
NODE_5418_length_2670_cov_161.500574	5418	2670	161.50	28.32	0	Clostridium
NODE_5491_length_2639_cov_161.320820	5491	2639	161.32	30.88	0	Clostridium
NODE_5593_length_2590_cov_164.562525	5593	2590	164.56	30.62	0	Clostridium
NODE_5758_length_2526_cov_147.666532	5758	2526	147.67	28.27	0	Staphylothermus
NODE_5922_length_2461_cov_97.678720	5922	2461	97.68	27.55	0	Desulfotomaculum
NODE_6015_length_2426_cov_98.177140	6015	2426	98.18	30.13	0	Clostridium
NODE_6054_length_2412_cov_160.907085	6054	2412	160.91	32.38	0	Clostridium
NODE_6215_length_2354_cov_131.326229	6215	2354	131.33	27.57	0	Peptoniphilus
NODE_6269_length_2330_cov_139.064176	6269	2330	139.06	31.59	0	Bacteroides
NODE_6290_length_2325_cov_130.209251	6290	2325	130.21	31.10	0	Unknown
NODE_6291_length_2325_cov_98.649780	6291	2325	98.65	29.72	0	Clostridium
NODE_6295_length_2324_cov_142.102688	6295	2324	142.10	31.32	0	Clostridium
NODE_6422_length_2281_cov_127.455076	6422	2281	127.46	27.66	0	Clostridium
NODE_6427_length_2280_cov_82.550112	6427	2280	82.55	29.78	0	Caldicellulosiruptor
NODE_6693_length_2191_cov_85.531367	6693	2191	85.53	29.12	0	Clostridium
NODE_6826_length_2153_cov_106.416587	6826	2153	106.42	32.51	0	Clostridium
NODE_6961_length_2112_cov_166.750608	6961	2112	166.75	29.31	0	Alkaliphilus
NODE_6975_length_2107_cov_132.553119	6975	2107	132.55	33.08	0	Unknown
NODE_6987_length_2103_cov_162.611328	6987	2103	162.61	28.58	0	Unknown
NODE_7005_length_2097_cov_118.565622	7005	2097	118.57	33.95	0	Parabacteroides
NODE_7108_length_2071_cov_104.468254	7108	2071	104.47	29.12	0	Clostridium
NODE_7236_length_2035_cov_103.820707	7236	2035	103.82	33.37	0	Unknown
NODE_7253_length_2029_cov_72.541033	7253	2029	72.54	28.59	0	Clostridium
NODE_7451_length_1973_cov_80.609489	7451	1973	80.61	29.70	0	Clostridium
NODE_7466_length_1969_cov_124.172414	7466	1969	124.17	30.17	0	Clostridium
NODE_7619_length_1928_cov_81.474106	7619	1928	81.47	32.57	0	Clostridium
NODE_7858_length_1868_cov_70.873138	7858	1868	70.87	29.76	0	Clostridium
NODE_7869_length_1864_cov_124.395246	7869	1864	124.40	30.85	0	Thermoanaerobacterium
NODE_7921_length_1851_cov_136.786192	7921	1851	136.79	31.55	0	Unknown
NODE_8350_length_1754_cov_162.530312	8350	1754	162.53	30.96	0	Alkaliphilus
NODE_8351_length_1754_cov_76.779871	8351	1754	76.78	29.65	0	Clostridium
NODE_8645_length_1692_cov_121.843616	8645	1692	121.84	28.37	0	Clostridium
NODE_8949_length_1635_cov_142.644304	8949	1635	142.64	31.99	0	Bacteroides
NODE_9105_length_1609_cov_130.028958	9105	1609	130.03	28.22	0	Clostridium
NODE_9224_length_1589_cov_69.489570	9224	1589	69.49	29.01	0	Alkaliphilus
NODE_9317_length_1574_cov_105.526004	9317	1574	105.53	30.18	0	Clostridium
NODE_9320_length_1573_cov_138.268116	9320	1573	138.27	32.74	0	Unknown
NODE_9394_length_1559_cov_95.495346	9394	1559	95.50	30.08	0	Clostridium
NODE_9582_length_1527_cov_69.491168	9582	1527	69.49	32.88	0	Clostridium
NODE_9714_length_1504_cov_158.917874	9714	1504	158.92	28.59	0	Clostridium
NODE_9930_length_1474_cov_99.357999	9930	1474	99.36	29.04	0	Geobacillus
NODE_9955_length_1470_cov_107.527915	9955	1470	107.53	30.20	0	Debaryomyces
NODE_10147_length_1443_cov_91.213977	10147	1443	91.21	30.28	0	Alkaliphilus
NODE_10241_length_1429_cov_121.221980	10241	1429	121.22	30.37	0	Clostridium
NODE_10264_length_1427_cov_161.625364	10264	1427	161.63	33.36	0	Clostridium
NODE_10417_length_1407_cov_166.821746	10417	1407	166.82	29.21	0	Clostridium
NODE_10436_length_1404_cov_153.463306	10436	1404	153.46	29.06	0	Clostridium
NODE_10437_length_1404_cov_72.231282	10437	1404	72.23	28.92	0	Unknown
NODE_10621_length_1379_cov_77.646526	10621	1379	77.65	31.62	0	Clostridium
NODE_10734_length_1366_cov_154.283753	10734	1366	154.28	29.94	0	Alkaliphilus
NODE_10786_length_1359_cov_89.770706	10786	1359	89.77	31.42	0	Clostridium
NODE_10858_length_1350_cov_122.552124	10858	1350	122.55	31.63	0	Clostridium
NODE_11867_length_1239_cov_107.948480	11867	1239	107.95	29.46	0	Clostridium
NODE_12096_length_1216_cov_159.612403	12096	1216	159.61	32.40	0	Clostridium
NODE_12121_length_1214_cov_80.719586	12121	1214	80.72	30.64	0	Unknown
NODE_12346_length_1193_cov_84.456063	12346	1193	84.46	30.09	0	Clostridium
NODE_12496_length_1180_cov_90.811556	12496	1180	90.81	30.00	0	Clostridium
NODE_12516_length_1178_cov_80.911843	12516	1178	80.91	28.01	0	Clostridium
NODE_12625_length_1167_cov_95.424460	12625	1167	95.42	29.05	0	Clostridium
NODE_12694_length_1161_cov_100.295660	12694	1161	100.30	31.18	0	Clostridium
NODE_12941_length_1141_cov_74.817680	12941	1141	74.82	30.41	0	Clostridium
NODE_13069_length_1131_cov_89.111524	13069	1131	89.11	30.50	0	Thermosediminibacter
NODE_13371_length_1103_cov_85.020992	13371	1103	85.02	31.19	0	Unknown
NODE_13800_length_1068_cov_88.452122	13800	1068	88.45	34.08	0	Unknown
NODE_13949_length_1056_cov_78.283716	13949	1056	78.28	28.79	0	Clostridium
NODE_14109_length_1045_cov_74.245455	14109	1045	74.25	33.11	0	Clostridium
NODE_14121_length_1044_cov_131.137513	14121	1044	131.14	28.64	0	Unknown
NODE_14122_length_1044_cov_108.332659	14122	1044	108.33	30.36	0	Clostridium
NODE_14138_length_1043_cov_69.771255	14138	1043	69.77	28.86	0	Unknown
NODE_14449_length_1021_cov_165.603520	14449	1021	165.60	27.91	0	Unknown
NODE_14689_length_1006_cov_77.497371	14689	1006	77.50	31.61	0	Clostridium
NODE_14868_length_995_cov_73.019149	14868	995	73.02	30.75	0	Clostridium
NODE_15267_length_971_cov_110.229258	15267	971	110.23	31.31	0	Unknown
NODE_15945_length_932_cov_97.038769	15945	932	97.04	33.58	0	Syntrophomonas
NODE_15946_length_932_cov_86.703535	15946	932	86.70	28.65	0	Thermococcus
NODE_16630_length_893_cov_115.973747	16630	893	115.97	31.80	0	Clostridium
NODE_16692_length_890_cov_126.275449	16692	890	126.28	31.12	0	Clostridium
NODE_16734_length_887_cov_86.350962	16734	887	86.35	31.91	0	Bacillus
NODE_16752_length_886_cov_136.844765	16752	886	136.84	34.20	0	Clostridium
NODE_17230_length_862_cov_121.177200	17230	862	121.18	31.44	0	Unknown
NODE_17702_length_841_cov_100.220102	17702	841	100.22	27.35	0	Clostridium
NODE_17910_length_830_cov_78.194839	17910	830	78.19	28.92	0	Unknown
NODE_18646_length_797_cov_72.656334	18646	797	72.66	31.62	0	Unknown
NODE_18987_length_784_cov_91.471879	18987	784	91.47	31.25	0	Clostridium
NODE_19445_length_766_cov_72.950774	19445	766	72.95	27.41	0	Unknown
NODE_20531_length_725_cov_86.647761	20531	725	86.65	33.10	0	Clostridium
NODE_20559_length_724_cov_75.659193	20559	724	75.66	32.46	0	Clostridium
NODE_21254_length_700_cov_78.116279	21254	700	78.12	29.71	0	Clostridium
NODE_21278_length_699_cov_169.079193	21278	699	169.08	28.18	0	Clostridium
NODE_21623_length_688_cov_82.180095	21623	688	82.18	29.65	0	Unknown
NODE_22021_length_675_cov_97.938710	22021	675	97.94	33.04	0	Clostridium
NODE_22501_length_662_cov_72.166392	22501	662	72.17	31.42	0	Clostridium
NODE_22833_length_652_cov_88.199330	22833	652	88.20	31.44	0	Clostridium
NODE_23354_length_637_cov_121.699313	23354	637	121.70	30.30	0	Unknown
NODE_23644_length_629_cov_70.693380	23644	629	70.69	30.84	0	Clostridium
NODE_24510_length_606_cov_93.257713	24510	606	93.26	31.68	0	Clostridium
NODE_24556_length_605_cov_98.007273	24556	605	98.01	33.22	0	Clostridium
NODE_24947_length_596_cov_89.512015	24947	596	89.51	31.21	0	Unknown
NODE_25078_length_593_cov_79.561338	25078	593	79.56	30.86	0	Clostridium
NODE_25686_length_579_cov_96.127863	25686	579	96.13	33.16	0	Unknown
NODE_26369_length_563_cov_110.110236	26369	563	110.11	28.95	0	Unknown
NODE_28715_length_513_cov_108.781659	28715	513	108.78	29.05	0	Clostridium
NODE_29022_length_507_cov_90.840708	29022	507	90.84	32.74	0	Clostridium
NODE_29292_length_502_cov_85.782998	29292	502	85.78	34.06	0	Unknown
NODE_29615_length_496_cov_85.342404	29615	496	85.34	33.87	0	Clostridium
NODE_29930_length_490_cov_81.841379	29930	490	81.84	27.55	0	Clostridium
NODE_30259_length_484_cov_99.447552	30259	484	99.45	29.96	0	Hyphomonas
NODE_31487_length_462_cov_166.085995	31487	462	166.09	29.22	0	Unknown
NODE_31768_length_457_cov_83.589552	31768	457	83.59	31.29	0	Clostridium
NODE_34281_length_418_cov_75.294766	34281	418	75.29	27.75	0	Unknown
NODE_34601_length_413_cov_89.885475	34601	413	89.89	30.02	0	Unknown
NODE_34809_length_410_cov_82.383099	34809	410	82.38	28.54	0	Unknown
NODE_34810_length_410_cov_77.577465	34810	410	77.58	29.27	0	Clostridium
NODE_35239_length_404_cov_69.553009	35239	404	69.55	31.93	0	Unknown
NODE_35319_length_403_cov_92.629310	35319	403	92.63	31.27	0	Clostridium
NODE_36783_length_384_cov_79.732523	36783	384	79.73	27.86	0	Unknown
NODE_37825_length_372_cov_87.747634	37825	372	87.75	30.38	0	Acetivibrio
NODE_37922_length_371_cov_148.272152	37922	371	148.27	31.54	0	Unknown
NODE_38198_length_368_cov_101.865815	38198	368	101.87	28.26	0	Unknown
NODE_38199_length_368_cov_70.900958	38199	368	70.90	32.06	0	Clostridium
NODE_38425_length_366_cov_124.694534	38425	366	124.69	28.41	0	Unknown
NODE_38630_length_364_cov_84.883495	38630	364	84.88	31.87	0	Clostridium
NODE_38819_length_362_cov_71.543974	38819	362	71.54	28.45	0	Clostridium
NODE_39588_length_354_cov_85.809365	39588	354	85.81	29.10	0	Unknown
NODE_39882_length_351_cov_78.445946	39882	351	78.45	33.90	0	Clostridium
NODE_42063_length_332_cov_73.898917	42063	332	73.90	31.02	0	Clostridium
NODE_42920_length_325_cov_118.237037	42920	325	118.24	31.39	0	Unknown
NODE_43288_length_322_cov_70.966292	43288	322	70.97	33.23	0	Clostridium
NODE_44310_length_314_cov_84.115830	44310	314	84.12	30.89	0	Unknown
NODE_48445_length_286_cov_73.796537	48445	286	73.80	30.07	0	Unknown
NODE_61352_length_251_cov_91.454082	61352	251	91.45	30.68	0	Clostridium
NODE_61797_length_250_cov_77.000000	61797	250	77.00	27.60	0	Unknown
NODE_63493_length_246_cov_79.811518	63493	246	79.81	28.05	0	Unknown
NODE_67491_length_237_cov_83.895604	67491	237	83.90	27.43	0	Unknown
NODE_72587_length_226_cov_78.111111	72587	226	78.11	30.09	0	Unknown
NODE_80208_length_210_cov_89.206452	80208	210	89.21	30.00	0	Unknown
NODE_82317_length_192_cov_150.664234	82317	192	150.66	33.85	0	Unknown
NODE_82323_length_191_cov_85.323529	82323	191	85.32	29.32	0	Clostridium
NODE_82331_length_190_cov_83.325926	82331	190	83.33	30.53	0	Unknown
NODE_82470_length_172_cov_148.495726	82470	172	148.50	32.56	0	Unknown
NODE_82634_length_147_cov_85.141304	82634	147	85.14	29.25	0	Unknown
NODE_82642_length_146_cov_82.780220	82642	146	82.78	32.88	0	Clostridium
NODE_82680_length_139_cov_75.416667	82680	139	75.42	27.34	0	Unknown
NODE_82774_length_126_cov_120.492958	82774	126	120.49	30.95	0	Unknown
NODE_82789_length_124_cov_83.913043	82789	124	83.91	29.03	0	Unknown
NODE_82790_length_124_cov_70.913043	82790	124	70.91	30.64	0	Clostridium
NODE_82803_length_123_cov_168.588235	82803	123	168.59	27.64	0	Unknown
NODE_82805_length_123_cov_70.191176	82805	123	70.19	28.45	0	Unknown
NODE_82821_length_121_cov_72.454545	82821	121	72.45	29.75	0	Unknown
NODE_82844_length_118_cov_152.492063	82844	118	152.49	33.05	0	Clostridium
NODE_82948_length_109_cov_132.611111	82948	109	132.61	33.95	0	Unknown
NODE_82985_length_108_cov_86.754717	82985	108	86.75	30.56	0	Unknown
NODE_83037_length_106_cov_85.274510	83037	106	85.27	30.19	0	Unknown
NODE_83145_length_102_cov_110.914894	83145	102	110.91	28.43	0	Unknown
NODE_83187_length_100_cov_77.600000	83187	100	77.60	31.00	0	Unknown
NODE_83253_length_96_cov_124.024390	83253	96	124.02	30.21	0	Unknown
NODE_83386_length_87_cov_79.281250	83386	87	79.28	31.03	0	Unknown
NODE_83458_length_81_cov_96.884615	83458	81	96.88	28.39	0	Unknown
NODE_83477_length_79_cov_120.666667	83477	79	120.67	31.65	0	Unknown
NODE_83518_length_76_cov_152.476190	83518	76	152.48	31.58	0	Unknown
NODE_83676_length_69_cov_110.857143	83676	69	110.86	31.88	0	Unknown
NODE_83745_length_66_cov_85.181818	83745	66	85.18	31.82	0	Unknown
NODE_83758_length_65_cov_130.300000	83758	65	130.30	33.85	0	Unknown
NODE_83773_length_64_cov_136.222222	83773	64	136.22	29.69	0	Unknown
NODE_83774_length_64_cov_114.777778	83774	64	114.78	31.25	0	Unknown
NODE_83775_length_64_cov_100.111111	83775	64	100.11	31.25	0	Unknown
NODE_83915_length_59_cov_164.250000	83915	59	164.25	30.51	0	Unknown
NODE_83916_length_59_cov_157.250000	83916	59	157.25	32.20	0	Unknown
NODE_83918_length_59_cov_150.000000	83918	59	150.00	32.20	0	Unknown
NODE_83971_length_58_cov_149.333333	83971	58	149.33	31.03	0	Unknown
NODE_84066_length_57_cov_171.500000	84066	57	171.50	31.58	0	Unknown
NODE_84068_length_57_cov_149.000000	84068	57	149.00	29.82	0	Unknown
NODE_84073_length_57_cov_138.500000	84073	57	138.50	29.82	0	Unknown
NODE_84078_length_57_cov_122.500000	84078	57	122.50	31.58	0	Unknown
NODE_84079_length_57_cov_121.000000	84079	57	121.00	28.07	0	Unknown
NODE_84085_length_57_cov_96.000000	84085	57	96.00	29.82	0	Unknown
NODE_84087_length_57_cov_89.500000	84087	57	89.50	31.58	0	Unknown
NODE_84377_length_56_cov_160.000000	84377	56	160.00	32.14	0	Unknown
NODE_84400_length_56_cov_130.000000	84400	56	130.00	32.14	0	Unknown
