NODE_38_length_137089_cov_5.270838	38	137089	5.27	54.11	100	Methanosaeta
NODE_45_length_123732_cov_5.373586	45	123732	5.37	53.26	20	Methanosaeta
NODE_120_length_82516_cov_4.954912	120	82516	4.95	52.37	120	Unknown
NODE_126_length_78615_cov_5.204582	126	78615	5.20	53.21	10	Methanosaeta
NODE_156_length_71564_cov_4.639444	156	71564	4.64	53.37	20	Methanosaeta
NODE_168_length_67822_cov_4.694645	168	67822	4.69	53.07	10	Methanosaeta
NODE_179_length_65357_cov_5.102631	179	65357	5.10	52.27	20	Methanosaeta
NODE_263_length_52324_cov_5.247259	263	52324	5.25	51.90	10	Methanosaeta
NODE_273_length_50020_cov_4.723747	273	50020	4.72	51.38	0	Methanosaeta
NODE_311_length_45973_cov_5.019404	311	45973	5.02	52.85	0	Methanosaeta
NODE_335_length_43363_cov_5.167567	335	43363	5.17	49.67	10	Methanosarcina
NODE_354_length_40613_cov_4.578949	354	40613	4.58	48.40	10	Methanosarcina
NODE_363_length_40043_cov_4.589402	363	40043	4.59	48.80	0	Methanosaeta
NODE_364_length_40013_cov_5.267506	364	40013	5.27	49.47	100	Methanosaeta
NODE_392_length_37559_cov_4.767838	392	37559	4.77	53.07	30	Methanosaeta
NODE_395_length_37279_cov_4.834703	395	37279	4.83	51.92	0	Methanosaeta
NODE_409_length_35733_cov_5.098884	409	35733	5.10	52.41	0	Methanosaeta
NODE_412_length_35560_cov_5.120406	412	35560	5.12	51.78	10	Methanosaeta
NODE_432_length_34174_cov_4.596002	432	34174	4.60	53.75	20	Methanosaeta
NODE_450_length_32991_cov_4.599314	450	32991	4.60	52.38	20	Methanosaeta
NODE_453_length_32928_cov_4.899036	453	32928	4.90	54.61	0	Methanosaeta
NODE_466_length_32062_cov_4.466211	466	32062	4.47	50.71	110	Methanosaeta
NODE_469_length_31882_cov_4.908725	469	31882	4.91	53.49	0	Methanosaeta
NODE_471_length_31556_cov_4.806419	471	31556	4.81	53.74	10	Methanosaeta
NODE_472_length_31485_cov_4.490582	472	31485	4.49	49.59	0	Methanosaeta
NODE_475_length_31228_cov_4.839733	475	31228	4.84	53.95	0	Methanosaeta
NODE_491_length_29821_cov_4.861520	491	29821	4.86	51.79	10	Methanosaeta
NODE_495_length_29455_cov_4.488844	495	29455	4.49	52.56	10	Methanosaeta
NODE_496_length_29410_cov_4.470073	496	29410	4.47	51.60	30	Methanosaeta
NODE_521_length_28005_cov_4.877818	521	28005	4.88	53.66	0	Methanosaeta
NODE_555_length_26121_cov_5.171258	555	26121	5.17	52.13	0	Methanosarcina
NODE_565_length_25557_cov_4.519528	565	25557	4.52	52.74	0	Methanosaeta
NODE_571_length_25248_cov_5.067916	571	25248	5.07	54.34	100	Methanosaeta
NODE_594_length_24203_cov_4.311247	594	24203	4.31	53.44	0	Methanosaeta
NODE_608_length_23392_cov_5.284870	608	23392	5.28	54.92	10	Methanosaeta
NODE_629_length_22518_cov_4.742822	629	22518	4.74	50.97	10	Methanosaeta
NODE_687_length_20702_cov_5.081997	687	20702	5.08	55.44	0	Methanosaeta
NODE_711_length_19772_cov_4.563017	711	19772	4.56	53.28	10	Methanosaeta
NODE_744_length_18688_cov_4.311115	744	18688	4.31	53.03	0	Methanosaeta
NODE_764_length_17986_cov_4.564163	764	17986	4.56	53.55	0	Methanosaeta
NODE_778_length_17697_cov_4.519896	778	17697	4.52	54.12	0	Methanosaeta
NODE_799_length_17129_cov_5.153860	799	17129	5.15	48.72	0	Methanosarcina
NODE_812_length_16620_cov_4.350921	812	16620	4.35	48.08	10	Methanosaeta
NODE_821_length_16396_cov_5.177529	821	16396	5.18	48.71	0	Methanosaeta
NODE_835_length_16175_cov_4.847767	835	16175	4.85	52.96	10	Methanosaeta
NODE_858_length_15705_cov_5.108562	858	15705	5.11	50.79	0	Methanosaeta
NODE_860_length_15701_cov_4.441902	860	15701	4.44	52.28	0	Methanosaeta
NODE_870_length_15438_cov_5.142170	870	15438	5.14	54.44	10	Methanosaeta
NODE_873_length_15393_cov_4.620094	873	15393	4.62	53.88	30	Methanosaeta
NODE_933_length_14255_cov_4.090915	933	14255	4.09	49.59	0	Methanosaeta
NODE_946_length_13930_cov_4.414270	946	13930	4.41	50.91	0	Methanosarcina
NODE_947_length_13912_cov_4.992567	947	13912	4.99	51.27	0	Methanosaeta
NODE_991_length_13298_cov_4.650985	991	13298	4.65	50.40	0	Methanosaeta
NODE_1000_length_13216_cov_4.846212	1000	13216	4.85	52.18	0	Methanosaeta
NODE_1012_length_13076_cov_4.802396	1012	13076	4.80	52.07	0	Methanosaeta
NODE_1017_length_13026_cov_4.981035	1017	13026	4.98	52.62	0	Methanosaeta
NODE_1071_length_12360_cov_4.923527	1071	12360	4.92	51.41	0	Methanosaeta
NODE_1086_length_12187_cov_4.690983	1086	12187	4.69	51.69	0	Methanosaeta
NODE_1169_length_11066_cov_4.073109	1169	11066	4.07	51.08	0	Methanosaeta
NODE_1176_length_11006_cov_4.822391	1176	11006	4.82	49.81	0	Methanosaeta
NODE_1177_length_10997_cov_5.105739	1177	10997	5.11	52.24	0	Methanosaeta
NODE_1221_length_10632_cov_5.233809	1221	10632	5.23	48.77	10	Methanosaeta
NODE_1222_length_10619_cov_4.192730	1222	10619	4.19	50.94	0	Methanosarcina
NODE_1298_length_9866_cov_4.786056	1298	9866	4.79	50.26	0	Methanosaeta
NODE_1333_length_9614_cov_4.989748	1333	9614	4.99	50.95	0	Methanosaeta
NODE_1365_length_9363_cov_4.784486	1365	9363	4.78	51.67	0	Methanosaeta
NODE_1375_length_9291_cov_4.516133	1375	9291	4.52	52.71	0	Methanosaeta
NODE_1393_length_9150_cov_5.378889	1393	9150	5.38	53.34	0	Methanosaeta
NODE_1491_length_8616_cov_5.346805	1491	8616	5.35	55.56	0	Methanosaeta
NODE_1536_length_8377_cov_4.615838	1536	8377	4.62	49.67	0	Methanosarcina
NODE_1537_length_8369_cov_4.638802	1537	8369	4.64	54.10	0	Methanosaeta
NODE_1555_length_8312_cov_5.571394	1555	8312	5.57	53.34	0	Methanosaeta
NODE_1622_length_7999_cov_5.133938	1622	7999	5.13	56.16	0	Methanosaeta
NODE_1642_length_7947_cov_4.071085	1642	7947	4.07	49.00	0	Methanosaeta
NODE_1662_length_7860_cov_5.057527	1662	7860	5.06	52.71	0	Methanococcoides
NODE_1683_length_7767_cov_4.949948	1683	7767	4.95	55.77	0	Methanosaeta
NODE_1703_length_7682_cov_4.586076	1703	7682	4.59	50.98	0	Methanosaeta
NODE_1743_length_7558_cov_4.754898	1743	7558	4.75	53.74	0	Methanosaeta
NODE_1812_length_7318_cov_4.471568	1812	7318	4.47	53.68	0	Methanosarcina
NODE_1842_length_7217_cov_4.784557	1842	7217	4.78	54.02	0	Methanohalobium
NODE_1857_length_7168_cov_4.298749	1857	7168	4.30	53.53	0	Methanosaeta
NODE_1927_length_6911_cov_3.498687	1927	6911	3.50	48.39	10	Methanosarcina
NODE_1939_length_6876_cov_5.896936	1939	6876	5.90	50.25	0	Methanosaeta
NODE_2096_length_6409_cov_4.393453	2096	6409	4.39	51.15	0	Methanosaeta
NODE_2307_length_5877_cov_4.716249	2307	5877	4.72	55.13	0	Methanosaeta
NODE_2356_length_5751_cov_4.399228	2356	5751	4.40	47.44	0	Methanosaeta
NODE_2414_length_5629_cov_5.058306	2414	5629	5.06	56.07	0	Methanosaeta
NODE_2548_length_5367_cov_4.352221	2548	5367	4.35	54.20	0	Methanosaeta
NODE_2801_length_4896_cov_5.039455	2801	4896	5.04	53.41	0	Methanosaeta
NODE_2813_length_4880_cov_4.068601	2813	4880	4.07	50.76	0	Methanosaeta
NODE_3132_length_4456_cov_3.615087	3132	4456	3.62	47.96	0	Methanosarcina
NODE_3444_length_4082_cov_3.884281	3444	4082	3.88	54.24	0	Methanosaeta
NODE_3534_length_3977_cov_4.238909	3534	3977	4.24	50.04	0	Methanosaeta
NODE_3722_length_3804_cov_5.395572	3722	3804	5.40	49.21	0	Methanosaeta
NODE_4285_length_3353_cov_3.868708	4285	3353	3.87	48.55	0	Methanoculleus
NODE_4484_length_3222_cov_3.726871	4484	3222	3.73	52.36	0	Methanosaeta
NODE_4590_length_3149_cov_4.739819	4590	3149	4.74	53.73	10	Methanosaeta
NODE_5568_length_2604_cov_4.059239	5568	2604	4.06	49.46	0	Methanosaeta
NODE_5600_length_2587_cov_4.656793	5600	2587	4.66	56.24	0	Methanoculleus
NODE_5614_length_2583_cov_4.830301	5614	2583	4.83	51.18	0	Methanosaeta
NODE_5685_length_2553_cov_4.325460	5685	2553	4.33	49.55	0	Methanosarcina
NODE_6430_length_2279_cov_5.494604	6430	2279	5.49	47.70	0	Methanosaeta
NODE_6739_length_2175_cov_4.300943	6739	2175	4.30	55.91	0	Methanococcoides
NODE_6810_length_2157_cov_4.088011	6810	2157	4.09	54.24	0	Methanothermobacter
NODE_7787_length_1883_cov_4.879650	7787	1883	4.88	48.91	0	Methanoculleus
NODE_8015_length_1829_cov_5.211950	8015	1829	5.21	48.88	0	Methanosarcina
NODE_8565_length_1707_cov_5.651332	8565	1707	5.65	47.98	0	Methanosarcina
NODE_9043_length_1618_cov_3.504159	9043	1618	3.50	53.09	0	Methanohalophilus
NODE_9517_length_1537_cov_4.858300	9517	1537	4.86	51.85	0	Methanosaeta
NODE_9765_length_1498_cov_5.249480	9765	1498	5.25	47.46	0	Methanothermobacter
NODE_10066_length_1454_cov_4.710508	10066	1454	4.71	52.20	0	Methanosaeta
NODE_12709_length_1160_cov_3.815385	12709	1160	3.82	54.57	0	Methanosaeta
NODE_23544_length_631_cov_5.529514	23544	631	5.53	48.02	0	Methanospirillum
NODE_55277_length_265_cov_6.452381	55277	265	6.45	56.23	0	Methanosaeta
NODE_73071_length_225_cov_4.517647	73071	225	4.52	54.22	0	Methanosaeta
